"Record Length",2000,"Points",-2.36000000e+000,1.48799998e+000
"Sample Interval",0.002,s,-2.35800000e+000,1.46399998e+000
"Trigger Point",1180,"Samples",-2.35600000e+000,1.49999999e+000
"Trigger Time",0.000826695371366895,s,-2.35400000e+000,1.51199999e+000
"",,,-2.35200000e+000,1.48799998e+000
"Horizontal Offset",-2.36,s,-2.35000000e+000,1.51199999e+000
,,,-2.34800000e+000,1.51199999e+000
,,,-2.34600000e+000,1.51199999e+000
,,,-2.34400000e+000,1.51199999e+000
,,,-2.34200000e+000,1.52399999e+000
,,,-2.34000000e+000,1.52399999e+000
,,,-2.33800000e+000,1.53599999e+000
,,,-2.33600000e+000,1.53599999e+000
,,,-2.33400000e+000,1.53599999e+000
,,,-2.33200000e+000,1.54799999e+000
,,,-2.33000000e+000,1.59599999e+000
,,,-2.32800000e+000,1.54799999e+000
,,,-2.32600000e+000,1.55999999e+000
,,,-2.32400000e+000,1.57199999e+000
,,,-2.32200000e+000,1.53599999e+000
,,,-2.32000000e+000,1.48799998e+000
,,,-2.31800000e+000,1.46399998e+000
,,,-2.31600000e+000,1.46399998e+000
,,,-2.31400000e+000,1.47599998e+000
,,,-2.31200000e+000,1.49999999e+000
,,,-2.31000000e+000,1.48799998e+000
,,,-2.30800000e+000,1.49999999e+000
,,,-2.30600000e+000,1.49999999e+000
,,,-2.30400000e+000,1.52399999e+000
,,,-2.30200000e+000,1.49999999e+000
,,,-2.30000000e+000,1.49999999e+000
,,,-2.29800000e+000,1.51199999e+000
,,,-2.29600000e+000,1.48799998e+000
,,,-2.29400000e+000,1.49999999e+000
,,,-2.29200000e+000,1.53599999e+000
,,,-2.29000000e+000,1.54799999e+000
,,,-2.28800000e+000,1.51199999e+000
,,,-2.28600000e+000,1.53599999e+000
,,,-2.28400000e+000,1.53599999e+000
,,,-2.28200000e+000,1.49999999e+000
,,,-2.28000000e+000,1.51199999e+000
,,,-2.27800000e+000,1.49999999e+000
,,,-2.27600000e+000,1.53599999e+000
,,,-2.27400000e+000,1.49999999e+000
,,,-2.27200000e+000,1.54799999e+000
,,,-2.27000000e+000,1.51199999e+000
,,,-2.26800000e+000,1.53599999e+000
,,,-2.26600000e+000,1.49999999e+000
,,,-2.26400000e+000,1.49999999e+000
,,,-2.26200000e+000,1.48799998e+000
,,,-2.26000000e+000,1.48799998e+000
,,,-2.25800000e+000,1.48799998e+000
,,,-2.25600000e+000,1.48799998e+000
,,,-2.25400000e+000,1.51199999e+000
,,,-2.25200000e+000,1.52399999e+000
,,,-2.25000000e+000,1.53599999e+000
,,,-2.24800000e+000,1.53599999e+000
,,,-2.24600000e+000,1.53599999e+000
,,,-2.24400000e+000,1.52399999e+000
,,,-2.24200000e+000,1.49999999e+000
,,,-2.24000000e+000,1.49999999e+000
,,,-2.23800000e+000,1.42799998e+000
,,,-2.23600000e+000,1.43999998e+000
,,,-2.23400000e+000,1.46399998e+000
,,,-2.23200000e+000,1.46399998e+000
,,,-2.23000000e+000,1.45199998e+000
,,,-2.22800000e+000,1.46399998e+000
,,,-2.22600000e+000,1.45199998e+000
,,,-2.22400000e+000,1.43999998e+000
,,,-2.22200000e+000,1.46399998e+000
,,,-2.22000000e+000,1.46399998e+000
,,,-2.21800000e+000,1.46399998e+000
,,,-2.21600000e+000,1.45199998e+000
,,,-2.21400000e+000,1.43999998e+000
,,,-2.21200000e+000,1.43999998e+000
,,,-2.21000000e+000,1.45199998e+000
,,,-2.20800000e+000,1.43999998e+000
,,,-2.20600000e+000,1.42799998e+000
,,,-2.20400000e+000,1.42799998e+000
,,,-2.20200000e+000,1.41599998e+000
,,,-2.20000000e+000,1.41599998e+000
,,,-2.19800000e+000,1.43999998e+000
,,,-2.19600000e+000,1.45199998e+000
,,,-2.19400000e+000,1.42799998e+000
,,,-2.19200000e+000,1.43999998e+000
,,,-2.19000000e+000,1.43999998e+000
,,,-2.18800000e+000,1.46399998e+000
,,,-2.18600000e+000,1.46399998e+000
,,,-2.18400000e+000,1.43999998e+000
,,,-2.18200000e+000,1.45199998e+000
,,,-2.18000000e+000,1.43999998e+000
,,,-2.17800000e+000,1.45199998e+000
,,,-2.17600000e+000,1.42799998e+000
,,,-2.17400000e+000,1.46399998e+000
,,,-2.17200000e+000,1.49999999e+000
,,,-2.17000000e+000,1.45199998e+000
,,,-2.16800000e+000,1.49999999e+000
,,,-2.16600000e+000,1.47599998e+000
,,,-2.16400000e+000,1.46399998e+000
,,,-2.16200000e+000,1.45199998e+000
,,,-2.16000000e+000,1.45199998e+000
,,,-2.15800000e+000,1.45199998e+000
,,,-2.15600000e+000,1.48799998e+000
,,,-2.15400000e+000,1.48799998e+000
,,,-2.15200000e+000,1.49999999e+000
,,,-2.15000000e+000,1.49999999e+000
,,,-2.14800000e+000,1.49999999e+000
,,,-2.14600000e+000,1.45199998e+000
,,,-2.14400000e+000,1.42799998e+000
,,,-2.14200000e+000,1.42799998e+000
,,,-2.14000000e+000,1.42799998e+000
,,,-2.13800000e+000,1.42799998e+000
,,,-2.13600000e+000,1.42799998e+000
,,,-2.13400000e+000,1.41599998e+000
,,,-2.13200000e+000,1.45199998e+000
,,,-2.13000000e+000,1.43999998e+000
,,,-2.12800000e+000,1.45199998e+000
,,,-2.12600000e+000,1.42799998e+000
,,,-2.12400000e+000,1.45199998e+000
,,,-2.12200000e+000,1.45199998e+000
,,,-2.12000000e+000,1.45199998e+000
,,,-2.11800000e+000,1.43999998e+000
,,,-2.11600000e+000,1.45199998e+000
,,,-2.11400000e+000,1.43999998e+000
,,,-2.11200000e+000,1.47599998e+000
,,,-2.11000000e+000,1.45199998e+000
,,,-2.10800000e+000,1.46399998e+000
,,,-2.10600000e+000,1.43999998e+000
,,,-2.10400000e+000,1.46399998e+000
,,,-2.10200000e+000,1.45199998e+000
,,,-2.10000000e+000,1.45199998e+000
,,,-2.09800000e+000,1.49999999e+000
,,,-2.09600000e+000,1.48799998e+000
,,,-2.09400000e+000,1.49999999e+000
,,,-2.09200000e+000,1.52399999e+000
,,,-2.09000000e+000,1.53599999e+000
,,,-2.08800000e+000,1.54799999e+000
,,,-2.08600000e+000,1.58399999e+000
,,,-2.08400000e+000,1.58399999e+000
,,,-2.08200000e+000,1.55999999e+000
,,,-2.08000000e+000,1.55999999e+000
,,,-2.07800000e+000,1.58399999e+000
,,,-2.07600000e+000,1.58399999e+000
,,,-2.07400000e+000,1.60799999e+000
,,,-2.07200000e+000,1.57199999e+000
,,,-2.07000000e+000,1.55999999e+000
,,,-2.06800000e+000,1.53599999e+000
,,,-2.06600000e+000,1.53599999e+000
,,,-2.06400000e+000,1.49999999e+000
,,,-2.06200000e+000,1.49999999e+000
,,,-2.06000000e+000,1.49999999e+000
,,,-2.05800000e+000,1.49999999e+000
,,,-2.05600000e+000,1.48799998e+000
,,,-2.05400000e+000,1.49999999e+000
,,,-2.05200000e+000,1.46399998e+000
,,,-2.05000000e+000,1.43999998e+000
,,,-2.04800000e+000,1.45199998e+000
,,,-2.04600000e+000,1.42799998e+000
,,,-2.04400000e+000,1.46399998e+000
,,,-2.04200000e+000,1.41599998e+000
,,,-2.04000000e+000,1.41599998e+000
,,,-2.03800000e+000,1.41599998e+000
,,,-2.03600000e+000,1.40399998e+000
,,,-2.03400000e+000,1.41599998e+000
,,,-2.03200000e+000,1.41599998e+000
,,,-2.03000000e+000,1.42799998e+000
,,,-2.02800000e+000,1.40399998e+000
,,,-2.02600000e+000,1.40399998e+000
,,,-2.02400000e+000,1.35599998e+000
,,,-2.02200000e+000,1.33199998e+000
,,,-2.02000000e+000,1.31999998e+000
,,,-2.01800000e+000,1.29599998e+000
,,,-2.01600000e+000,1.30799998e+000
,,,-2.01400000e+000,1.34399998e+000
,,,-2.01200000e+000,1.41599998e+000
,,,-2.01000000e+000,1.59599999e+000
,,,-2.00800000e+000,1.69199999e+000
,,,-2.00600000e+000,1.78800000e+000
,,,-2.00400000e+000,1.89600000e+000
,,,-2.00200000e+000,1.95600000e+000
,,,-2.00000000e+000,2.02800001e+000
,,,-1.99800000e+000,2.14800001e+000
,,,-1.99600000e+000,2.25600002e+000
,,,-1.99400000e+000,2.40000002e+000
,,,-1.99200000e+000,2.53200003e+000
,,,-1.99000000e+000,2.59200003e+000
,,,-1.98800000e+000,2.56800003e+000
,,,-1.98600000e+000,2.38800002e+000
,,,-1.98400000e+000,2.12400001e+000
,,,-1.98200000e+000,1.77600000e+000
,,,-1.98000000e+000,1.47599998e+000
,,,-1.97800000e+000,1.18799997e+000
,,,-1.97600000e+000,9.83999965e-001
,,,-1.97400000e+000,8.75999960e-001
,,,-1.97200000e+000,8.75999960e-001
,,,-1.97000000e+000,8.99999961e-001
,,,-1.96800000e+000,9.71999964e-001
,,,-1.96600000e+000,1.03199997e+000
,,,-1.96400000e+000,1.10399997e+000
,,,-1.96200000e+000,1.16399997e+000
,,,-1.96000000e+000,1.23599997e+000
,,,-1.95800000e+000,1.25999998e+000
,,,-1.95600000e+000,1.30799998e+000
,,,-1.95400000e+000,1.34399998e+000
,,,-1.95200000e+000,1.37999998e+000
,,,-1.95000000e+000,1.41599998e+000
,,,-1.94800000e+000,1.42799998e+000
,,,-1.94600000e+000,1.42799998e+000
,,,-1.94400000e+000,1.45199998e+000
,,,-1.94200000e+000,1.43999998e+000
,,,-1.94000000e+000,1.45199998e+000
,,,-1.93800000e+000,1.41599998e+000
,,,-1.93600000e+000,1.42799998e+000
,,,-1.93400000e+000,1.45199998e+000
,,,-1.93200000e+000,1.46399998e+000
,,,-1.93000000e+000,1.48799998e+000
,,,-1.92800000e+000,1.51199999e+000
,,,-1.92600000e+000,1.49999999e+000
,,,-1.92400000e+000,1.51199999e+000
,,,-1.92200000e+000,1.49999999e+000
,,,-1.92000000e+000,1.48799998e+000
,,,-1.91800000e+000,1.49999999e+000
,,,-1.91600000e+000,1.48799998e+000
,,,-1.91400000e+000,1.51199999e+000
,,,-1.91200000e+000,1.53599999e+000
,,,-1.91000000e+000,1.52399999e+000
,,,-1.90800000e+000,1.53599999e+000
,,,-1.90600000e+000,1.51199999e+000
,,,-1.90400000e+000,1.48799998e+000
,,,-1.90200000e+000,1.48799998e+000
,,,-1.90000000e+000,1.48799998e+000
,,,-1.89800000e+000,1.46399998e+000
,,,-1.89600000e+000,1.47599998e+000
,,,-1.89400000e+000,1.51199999e+000
,,,-1.89200000e+000,1.47599998e+000
,,,-1.89000000e+000,1.49999999e+000
,,,-1.88800000e+000,1.51199999e+000
,,,-1.88600000e+000,1.52399999e+000
,,,-1.88400000e+000,1.51199999e+000
,,,-1.88200000e+000,1.48799998e+000
,,,-1.88000000e+000,1.49999999e+000
,,,-1.87800000e+000,1.46399998e+000
,,,-1.87600000e+000,1.53599999e+000
,,,-1.87400000e+000,1.52399999e+000
,,,-1.87200000e+000,1.53599999e+000
,,,-1.87000000e+000,1.55999999e+000
,,,-1.86800000e+000,1.55999999e+000
,,,-1.86600000e+000,1.57199999e+000
,,,-1.86400000e+000,1.57199999e+000
,,,-1.86200000e+000,1.54799999e+000
,,,-1.86000000e+000,1.53599999e+000
,,,-1.85800000e+000,1.54799999e+000
,,,-1.85600000e+000,1.58399999e+000
,,,-1.85400000e+000,1.59599999e+000
,,,-1.85200000e+000,1.60799999e+000
,,,-1.85000000e+000,1.61999999e+000
,,,-1.84800000e+000,1.63199999e+000
,,,-1.84600000e+000,1.60799999e+000
,,,-1.84400000e+000,1.61999999e+000
,,,-1.84200000e+000,1.60799999e+000
,,,-1.84000000e+000,1.64399999e+000
,,,-1.83800000e+000,1.64399999e+000
,,,-1.83600000e+000,1.64399999e+000
,,,-1.83400000e+000,1.66799999e+000
,,,-1.83200000e+000,1.70399999e+000
,,,-1.83000000e+000,1.69199999e+000
,,,-1.82800000e+000,1.75200000e+000
,,,-1.82600000e+000,1.73999999e+000
,,,-1.82400000e+000,1.75200000e+000
,,,-1.82200000e+000,1.72799999e+000
,,,-1.82000000e+000,1.72799999e+000
,,,-1.81800000e+000,1.71599999e+000
,,,-1.81600000e+000,1.71599999e+000
,,,-1.81400000e+000,1.72799999e+000
,,,-1.81200000e+000,1.73999999e+000
,,,-1.81000000e+000,1.78800000e+000
,,,-1.80800000e+000,1.78800000e+000
,,,-1.80600000e+000,1.82400000e+000
,,,-1.80400000e+000,1.84800000e+000
,,,-1.80200000e+000,1.81200000e+000
,,,-1.80000000e+000,1.83600000e+000
,,,-1.79800000e+000,1.83600000e+000
,,,-1.79600000e+000,1.87200000e+000
,,,-1.79400000e+000,1.89600000e+000
,,,-1.79200000e+000,1.88400000e+000
,,,-1.79000000e+000,1.90800000e+000
,,,-1.78800000e+000,1.94400000e+000
,,,-1.78600000e+000,1.96800000e+000
,,,-1.78400000e+000,2.00400001e+000
,,,-1.78200000e+000,2.00400001e+000
,,,-1.78000000e+000,2.01600001e+000
,,,-1.77800000e+000,2.01600001e+000
,,,-1.77600000e+000,2.00400001e+000
,,,-1.77400000e+000,1.99200000e+000
,,,-1.77200000e+000,1.96800000e+000
,,,-1.77000000e+000,1.98000000e+000
,,,-1.76800000e+000,1.93200000e+000
,,,-1.76600000e+000,1.92000000e+000
,,,-1.76400000e+000,1.96800000e+000
,,,-1.76200000e+000,1.95600000e+000
,,,-1.76000000e+000,1.95600000e+000
,,,-1.75800000e+000,1.96800000e+000
,,,-1.75600000e+000,1.96800000e+000
,,,-1.75400000e+000,1.96800000e+000
,,,-1.75200000e+000,1.96800000e+000
,,,-1.75000000e+000,1.95600000e+000
,,,-1.74800000e+000,1.95600000e+000
,,,-1.74600000e+000,1.90800000e+000
,,,-1.74400000e+000,1.90800000e+000
,,,-1.74200000e+000,1.87200000e+000
,,,-1.74000000e+000,1.88400000e+000
,,,-1.73800000e+000,1.86000000e+000
,,,-1.73600000e+000,1.84800000e+000
,,,-1.73400000e+000,1.81200000e+000
,,,-1.73200000e+000,1.81200000e+000
,,,-1.73000000e+000,1.82400000e+000
,,,-1.72800000e+000,1.80000000e+000
,,,-1.72600000e+000,1.76400000e+000
,,,-1.72400000e+000,1.72799999e+000
,,,-1.72200000e+000,1.70399999e+000
,,,-1.72000000e+000,1.67999999e+000
,,,-1.71800000e+000,1.66799999e+000
,,,-1.71600000e+000,1.61999999e+000
,,,-1.71400000e+000,1.60799999e+000
,,,-1.71200000e+000,1.60799999e+000
,,,-1.71000000e+000,1.60799999e+000
,,,-1.70800000e+000,1.57199999e+000
,,,-1.70600000e+000,1.55999999e+000
,,,-1.70400000e+000,1.54799999e+000
,,,-1.70200000e+000,1.53599999e+000
,,,-1.70000000e+000,1.49999999e+000
,,,-1.69800000e+000,1.51199999e+000
,,,-1.69600000e+000,1.52399999e+000
,,,-1.69400000e+000,1.49999999e+000
,,,-1.69200000e+000,1.53599999e+000
,,,-1.69000000e+000,1.49999999e+000
,,,-1.68800000e+000,1.49999999e+000
,,,-1.68600000e+000,1.52399999e+000
,,,-1.68400000e+000,1.47599998e+000
,,,-1.68200000e+000,1.46399998e+000
,,,-1.68000000e+000,1.43999998e+000
,,,-1.67800000e+000,1.42799998e+000
,,,-1.67600000e+000,1.40399998e+000
,,,-1.67400000e+000,1.41599998e+000
,,,-1.67200000e+000,1.42799998e+000
,,,-1.67000000e+000,1.41599998e+000
,,,-1.66800000e+000,1.42799998e+000
,,,-1.66600000e+000,1.41599998e+000
,,,-1.66400000e+000,1.39199998e+000
,,,-1.66200000e+000,1.39199998e+000
,,,-1.66000000e+000,1.39199998e+000
,,,-1.65800000e+000,1.41599998e+000
,,,-1.65600000e+000,1.41599998e+000
,,,-1.65400000e+000,1.42799998e+000
,,,-1.65200000e+000,1.43999998e+000
,,,-1.65000000e+000,1.43999998e+000
,,,-1.64800000e+000,1.48799998e+000
,,,-1.64600000e+000,1.47599998e+000
,,,-1.64400000e+000,1.43999998e+000
,,,-1.64200000e+000,1.45199998e+000
,,,-1.64000000e+000,1.45199998e+000
,,,-1.63800000e+000,1.42799998e+000
,,,-1.63600000e+000,1.43999998e+000
,,,-1.63400000e+000,1.45199998e+000
,,,-1.63200000e+000,1.46399998e+000
,,,-1.63000000e+000,1.47599998e+000
,,,-1.62800000e+000,1.43999998e+000
,,,-1.62600000e+000,1.48799998e+000
,,,-1.62400000e+000,1.48799998e+000
,,,-1.62200000e+000,1.45199998e+000
,,,-1.62000000e+000,1.46399998e+000
,,,-1.61800000e+000,1.45199998e+000
,,,-1.61600000e+000,1.45199998e+000
,,,-1.61400000e+000,1.46399998e+000
,,,-1.61200000e+000,1.45199998e+000
,,,-1.61000000e+000,1.45199998e+000
,,,-1.60800000e+000,1.47599998e+000
,,,-1.60600000e+000,1.48799998e+000
,,,-1.60400000e+000,1.45199998e+000
,,,-1.60200000e+000,1.46399998e+000
,,,-1.60000000e+000,1.45199998e+000
,,,-1.59800000e+000,1.45199998e+000
,,,-1.59600000e+000,1.46399998e+000
,,,-1.59400000e+000,1.45199998e+000
,,,-1.59200000e+000,1.45199998e+000
,,,-1.59000000e+000,1.46399998e+000
,,,-1.58800000e+000,1.47599998e+000
,,,-1.58600000e+000,1.43999998e+000
,,,-1.58400000e+000,1.42799998e+000
,,,-1.58200000e+000,1.42799998e+000
,,,-1.58000000e+000,1.39199998e+000
,,,-1.57800000e+000,1.40399998e+000
,,,-1.57600000e+000,1.41599998e+000
,,,-1.57400000e+000,1.39199998e+000
,,,-1.57200000e+000,1.40399998e+000
,,,-1.57000000e+000,1.42799998e+000
,,,-1.56800000e+000,1.42799998e+000
,,,-1.56600000e+000,1.41599998e+000
,,,-1.56400000e+000,1.41599998e+000
,,,-1.56200000e+000,1.41599998e+000
,,,-1.56000000e+000,1.40399998e+000
,,,-1.55800000e+000,1.41599998e+000
,,,-1.55600000e+000,1.41599998e+000
,,,-1.55400000e+000,1.41599998e+000
,,,-1.55200000e+000,1.39199998e+000
,,,-1.55000000e+000,1.41599998e+000
,,,-1.54800000e+000,1.42799998e+000
,,,-1.54600000e+000,1.42799998e+000
,,,-1.54400000e+000,1.41599998e+000
,,,-1.54200000e+000,1.43999998e+000
,,,-1.54000000e+000,1.41599998e+000
,,,-1.53800000e+000,1.42799998e+000
,,,-1.53600000e+000,1.41599998e+000
,,,-1.53400000e+000,1.42799998e+000
,,,-1.53200000e+000,1.45199998e+000
,,,-1.53000000e+000,1.42799998e+000
,,,-1.52800000e+000,1.42799998e+000
,,,-1.52600000e+000,1.41599998e+000
,,,-1.52400000e+000,1.41599998e+000
,,,-1.52200000e+000,1.41599998e+000
,,,-1.52000000e+000,1.36799998e+000
,,,-1.51800000e+000,1.35599998e+000
,,,-1.51600000e+000,1.34399998e+000
,,,-1.51400000e+000,1.36799998e+000
,,,-1.51200000e+000,1.36799998e+000
,,,-1.51000000e+000,1.39199998e+000
,,,-1.50800000e+000,1.39199998e+000
,,,-1.50600000e+000,1.40399998e+000
,,,-1.50400000e+000,1.37999998e+000
,,,-1.50200000e+000,1.37999998e+000
,,,-1.50000000e+000,1.37999998e+000
,,,-1.49800000e+000,1.33199998e+000
,,,-1.49600000e+000,1.33199998e+000
,,,-1.49400000e+000,1.37999998e+000
,,,-1.49200000e+000,1.39199998e+000
,,,-1.49000000e+000,1.39199998e+000
,,,-1.48800000e+000,1.35599998e+000
,,,-1.48600000e+000,1.40399998e+000
,,,-1.48400000e+000,1.39199998e+000
,,,-1.48200000e+000,1.39199998e+000
,,,-1.48000000e+000,1.37999998e+000
,,,-1.47800000e+000,1.39199998e+000
,,,-1.47600000e+000,1.39199998e+000
,,,-1.47400000e+000,1.40399998e+000
,,,-1.47200000e+000,1.42799998e+000
,,,-1.47000000e+000,1.40399998e+000
,,,-1.46800000e+000,1.42799998e+000
,,,-1.46600000e+000,1.41599998e+000
,,,-1.46400000e+000,1.40399998e+000
,,,-1.46200000e+000,1.39199998e+000
,,,-1.46000000e+000,1.35599998e+000
,,,-1.45800000e+000,1.34399998e+000
,,,-1.45600000e+000,1.36799998e+000
,,,-1.45400000e+000,1.36799998e+000
,,,-1.45200000e+000,1.37999998e+000
,,,-1.45000000e+000,1.40399998e+000
,,,-1.44800000e+000,1.41599998e+000
,,,-1.44600000e+000,1.41599998e+000
,,,-1.44400000e+000,1.41599998e+000
,,,-1.44200000e+000,1.41599998e+000
,,,-1.44000000e+000,1.37999998e+000
,,,-1.43800000e+000,1.41599998e+000
,,,-1.43600000e+000,1.41599998e+000
,,,-1.43400000e+000,1.41599998e+000
,,,-1.43200000e+000,1.42799998e+000
,,,-1.43000000e+000,1.41599998e+000
,,,-1.42800000e+000,1.43999998e+000
,,,-1.42600000e+000,1.40399998e+000
,,,-1.42400000e+000,1.41599998e+000
,,,-1.42200000e+000,1.42799998e+000
,,,-1.42000000e+000,1.41599998e+000
,,,-1.41800000e+000,1.42799998e+000
,,,-1.41600000e+000,1.45199998e+000
,,,-1.41400000e+000,1.42799998e+000
,,,-1.41200000e+000,1.45199998e+000
,,,-1.41000000e+000,1.46399998e+000
,,,-1.40800000e+000,1.48799998e+000
,,,-1.40600000e+000,1.48799998e+000
,,,-1.40400000e+000,1.47599998e+000
,,,-1.40200000e+000,1.46399998e+000
,,,-1.40000000e+000,1.48799998e+000
,,,-1.39800000e+000,1.49999999e+000
,,,-1.39600000e+000,1.48799998e+000
,,,-1.39400000e+000,1.47599998e+000
,,,-1.39200000e+000,1.48799998e+000
,,,-1.39000000e+000,1.48799998e+000
,,,-1.38800000e+000,1.46399998e+000
,,,-1.38600000e+000,1.45199998e+000
,,,-1.38400000e+000,1.43999998e+000
,,,-1.38200000e+000,1.42799998e+000
,,,-1.38000000e+000,1.40399998e+000
,,,-1.37800000e+000,1.39199998e+000
,,,-1.37600000e+000,1.35599998e+000
,,,-1.37400000e+000,1.39199998e+000
,,,-1.37200000e+000,1.37999998e+000
,,,-1.37000000e+000,1.36799998e+000
,,,-1.36800000e+000,1.34399998e+000
,,,-1.36600000e+000,1.35599998e+000
,,,-1.36400000e+000,1.35599998e+000
,,,-1.36200000e+000,1.34399998e+000
,,,-1.36000000e+000,1.33199998e+000
,,,-1.35800000e+000,1.31999998e+000
,,,-1.35600000e+000,1.34399998e+000
,,,-1.35400000e+000,1.34399998e+000
,,,-1.35200000e+000,1.34399998e+000
,,,-1.35000000e+000,1.30799998e+000
,,,-1.34800000e+000,1.29599998e+000
,,,-1.34600000e+000,1.25999998e+000
,,,-1.34400000e+000,1.25999998e+000
,,,-1.34200000e+000,1.22399997e+000
,,,-1.34000000e+000,1.28399998e+000
,,,-1.33800000e+000,1.35599998e+000
,,,-1.33600000e+000,1.48799998e+000
,,,-1.33400000e+000,1.63199999e+000
,,,-1.33200000e+000,1.76400000e+000
,,,-1.33000000e+000,1.83600000e+000
,,,-1.32800000e+000,1.93200000e+000
,,,-1.32600000e+000,2.02800001e+000
,,,-1.32400000e+000,2.10000001e+000
,,,-1.32200000e+000,2.20800001e+000
,,,-1.32000000e+000,2.29200002e+000
,,,-1.31800000e+000,2.37600002e+000
,,,-1.31600000e+000,2.40000002e+000
,,,-1.31400000e+000,2.28000002e+000
,,,-1.31200000e+000,2.14800001e+000
,,,-1.31000000e+000,1.84800000e+000
,,,-1.30800000e+000,1.54799999e+000
,,,-1.30600000e+000,1.21199997e+000
,,,-1.30400000e+000,9.23999962e-001
,,,-1.30200000e+000,7.19999954e-001
,,,-1.30000000e+000,6.23999950e-001
,,,-1.29800000e+000,6.11999950e-001
,,,-1.29600000e+000,7.31999955e-001
,,,-1.29400000e+000,8.15999958e-001
,,,-1.29200000e+000,9.23999962e-001
,,,-1.29000000e+000,1.01999997e+000
,,,-1.28800000e+000,1.10399997e+000
,,,-1.28600000e+000,1.16399997e+000
,,,-1.28400000e+000,1.21199997e+000
,,,-1.28200000e+000,1.25999998e+000
,,,-1.28000000e+000,1.25999998e+000
,,,-1.27800000e+000,1.29599998e+000
,,,-1.27600000e+000,1.33199998e+000
,,,-1.27400000e+000,1.40399998e+000
,,,-1.27200000e+000,1.42799998e+000
,,,-1.27000000e+000,1.47599998e+000
,,,-1.26800000e+000,1.42799998e+000
,,,-1.26600000e+000,1.43999998e+000
,,,-1.26400000e+000,1.41599998e+000
,,,-1.26200000e+000,1.40399998e+000
,,,-1.26000000e+000,1.37999998e+000
,,,-1.25800000e+000,1.40399998e+000
,,,-1.25600000e+000,1.41599998e+000
,,,-1.25400000e+000,1.39199998e+000
,,,-1.25200000e+000,1.37999998e+000
,,,-1.25000000e+000,1.41599998e+000
,,,-1.24800000e+000,1.41599998e+000
,,,-1.24600000e+000,1.42799998e+000
,,,-1.24400000e+000,1.42799998e+000
,,,-1.24200000e+000,1.41599998e+000
,,,-1.24000000e+000,1.41599998e+000
,,,-1.23800000e+000,1.41599998e+000
,,,-1.23600000e+000,1.45199998e+000
,,,-1.23400000e+000,1.45199998e+000
,,,-1.23200000e+000,1.45199998e+000
,,,-1.23000000e+000,1.47599998e+000
,,,-1.22800000e+000,1.49999999e+000
,,,-1.22600000e+000,1.48799998e+000
,,,-1.22400000e+000,1.49999999e+000
,,,-1.22200000e+000,1.45199998e+000
,,,-1.22000000e+000,1.45199998e+000
,,,-1.21800000e+000,1.47599998e+000
,,,-1.21600000e+000,1.49999999e+000
,,,-1.21400000e+000,1.54799999e+000
,,,-1.21200000e+000,1.53599999e+000
,,,-1.21000000e+000,1.54799999e+000
,,,-1.20800000e+000,1.53599999e+000
,,,-1.20600000e+000,1.53599999e+000
,,,-1.20400000e+000,1.53599999e+000
,,,-1.20200000e+000,1.52399999e+000
,,,-1.20000000e+000,1.53599999e+000
,,,-1.19800000e+000,1.49999999e+000
,,,-1.19600000e+000,1.53599999e+000
,,,-1.19400000e+000,1.52399999e+000
,,,-1.19200000e+000,1.52399999e+000
,,,-1.19000000e+000,1.53599999e+000
,,,-1.18800000e+000,1.54799999e+000
,,,-1.18600000e+000,1.55999999e+000
,,,-1.18400000e+000,1.58399999e+000
,,,-1.18200000e+000,1.58399999e+000
,,,-1.18000000e+000,1.58399999e+000
,,,-1.17800000e+000,1.58399999e+000
,,,-1.17600000e+000,1.58399999e+000
,,,-1.17400000e+000,1.60799999e+000
,,,-1.17200000e+000,1.59599999e+000
,,,-1.17000000e+000,1.59599999e+000
,,,-1.16800000e+000,1.61999999e+000
,,,-1.16600000e+000,1.63199999e+000
,,,-1.16400000e+000,1.60799999e+000
,,,-1.16200000e+000,1.60799999e+000
,,,-1.16000000e+000,1.63199999e+000
,,,-1.15800000e+000,1.64399999e+000
,,,-1.15600000e+000,1.69199999e+000
,,,-1.15400000e+000,1.69199999e+000
,,,-1.15200000e+000,1.70399999e+000
,,,-1.15000000e+000,1.73999999e+000
,,,-1.14800000e+000,1.71599999e+000
,,,-1.14600000e+000,1.75200000e+000
,,,-1.14400000e+000,1.73999999e+000
,,,-1.14200000e+000,1.73999999e+000
,,,-1.14000000e+000,1.75200000e+000
,,,-1.13800000e+000,1.73999999e+000
,,,-1.13600000e+000,1.73999999e+000
,,,-1.13400000e+000,1.72799999e+000
,,,-1.13200000e+000,1.77600000e+000
,,,-1.13000000e+000,1.78800000e+000
,,,-1.12800000e+000,1.77600000e+000
,,,-1.12600000e+000,1.80000000e+000
,,,-1.12400000e+000,1.80000000e+000
,,,-1.12200000e+000,1.80000000e+000
,,,-1.12000000e+000,1.82400000e+000
,,,-1.11800000e+000,1.80000000e+000
,,,-1.11600000e+000,1.84800000e+000
,,,-1.11400000e+000,1.87200000e+000
,,,-1.11200000e+000,1.92000000e+000
,,,-1.11000000e+000,1.90800000e+000
,,,-1.10800000e+000,1.92000000e+000
,,,-1.10600000e+000,1.92000000e+000
,,,-1.10400000e+000,1.90800000e+000
,,,-1.10200000e+000,1.89600000e+000
,,,-1.10000000e+000,1.90800000e+000
,,,-1.09800000e+000,1.88400000e+000
,,,-1.09600000e+000,1.88400000e+000
,,,-1.09400000e+000,1.88400000e+000
,,,-1.09200000e+000,1.89600000e+000
,,,-1.09000000e+000,1.92000000e+000
,,,-1.08800000e+000,1.93200000e+000
,,,-1.08600000e+000,1.88400000e+000
,,,-1.08400000e+000,1.90800000e+000
,,,-1.08200000e+000,1.90800000e+000
,,,-1.08000000e+000,1.92000000e+000
,,,-1.07800000e+000,1.89600000e+000
,,,-1.07600000e+000,1.90800000e+000
,,,-1.07400000e+000,1.88400000e+000
,,,-1.07200000e+000,1.88400000e+000
,,,-1.07000000e+000,1.89600000e+000
,,,-1.06800000e+000,1.87200000e+000
,,,-1.06600000e+000,1.86000000e+000
,,,-1.06400000e+000,1.83600000e+000
,,,-1.06200000e+000,1.82400000e+000
,,,-1.06000000e+000,1.77600000e+000
,,,-1.05800000e+000,1.77600000e+000
,,,-1.05600000e+000,1.77600000e+000
,,,-1.05400000e+000,1.70399999e+000
,,,-1.05200000e+000,1.70399999e+000
,,,-1.05000000e+000,1.70399999e+000
,,,-1.04800000e+000,1.64399999e+000
,,,-1.04600000e+000,1.61999999e+000
,,,-1.04400000e+000,1.57199999e+000
,,,-1.04200000e+000,1.54799999e+000
,,,-1.04000000e+000,1.51199999e+000
,,,-1.03800000e+000,1.51199999e+000
,,,-1.03600000e+000,1.49999999e+000
,,,-1.03400000e+000,1.53599999e+000
,,,-1.03200000e+000,1.49999999e+000
,,,-1.03000000e+000,1.47599998e+000
,,,-1.02800000e+000,1.48799998e+000
,,,-1.02600000e+000,1.47599998e+000
,,,-1.02400000e+000,1.43999998e+000
,,,-1.02200000e+000,1.46399998e+000
,,,-1.02000000e+000,1.41599998e+000
,,,-1.01800000e+000,1.42799998e+000
,,,-1.01600000e+000,1.43999998e+000
,,,-1.01400000e+000,1.42799998e+000
,,,-1.01200000e+000,1.45199998e+000
,,,-1.01000000e+000,1.46399998e+000
,,,-1.00800000e+000,1.45199998e+000
,,,-1.00600000e+000,1.45199998e+000
,,,-1.00400000e+000,1.45199998e+000
,,,-1.00200000e+000,1.45199998e+000
,,,-1.00000000e+000,1.45199998e+000
,,,-9.98000000e-001,1.42799998e+000
,,,-9.96000000e-001,1.42799998e+000
,,,-9.94000000e-001,1.42799998e+000
,,,-9.92000000e-001,1.42799998e+000
,,,-9.90000000e-001,1.42799998e+000
,,,-9.88000000e-001,1.47599998e+000
,,,-9.86000000e-001,1.43999998e+000
,,,-9.84000000e-001,1.42799998e+000
,,,-9.82000000e-001,1.41599998e+000
,,,-9.80000000e-001,1.43999998e+000
,,,-9.78000000e-001,1.41599998e+000
,,,-9.76000000e-001,1.43999998e+000
,,,-9.74000000e-001,1.42799998e+000
,,,-9.72000000e-001,1.42799998e+000
,,,-9.70000000e-001,1.45199998e+000
,,,-9.68000000e-001,1.49999999e+000
,,,-9.66000000e-001,1.46399998e+000
,,,-9.64000000e-001,1.45199998e+000
,,,-9.62000000e-001,1.45199998e+000
,,,-9.60000000e-001,1.41599998e+000
,,,-9.58000000e-001,1.42799998e+000
,,,-9.56000000e-001,1.42799998e+000
,,,-9.54000000e-001,1.42799998e+000
,,,-9.52000000e-001,1.45199998e+000
,,,-9.50000000e-001,1.45199998e+000
,,,-9.48000000e-001,1.45199998e+000
,,,-9.46000000e-001,1.42799998e+000
,,,-9.44000000e-001,1.42799998e+000
,,,-9.42000000e-001,1.39199998e+000
,,,-9.40000000e-001,1.41599998e+000
,,,-9.38000000e-001,1.41599998e+000
,,,-9.36000000e-001,1.41599998e+000
,,,-9.34000000e-001,1.41599998e+000
,,,-9.32000000e-001,1.41599998e+000
,,,-9.30000000e-001,1.45199998e+000
,,,-9.28000000e-001,1.42799998e+000
,,,-9.26000000e-001,1.45199998e+000
,,,-9.24000000e-001,1.41599998e+000
,,,-9.22000000e-001,1.41599998e+000
,,,-9.20000000e-001,1.43999998e+000
,,,-9.18000000e-001,1.41599998e+000
,,,-9.16000000e-001,1.42799998e+000
,,,-9.14000000e-001,1.41599998e+000
,,,-9.12000000e-001,1.43999998e+000
,,,-9.10000000e-001,1.42799998e+000
,,,-9.08000000e-001,1.45199998e+000
,,,-9.06000000e-001,1.45199998e+000
,,,-9.04000000e-001,1.43999998e+000
,,,-9.02000000e-001,1.42799998e+000
,,,-9.00000000e-001,1.42799998e+000
,,,-8.98000000e-001,1.45199998e+000
,,,-8.96000000e-001,1.45199998e+000
,,,-8.94000000e-001,1.48799998e+000
,,,-8.92000000e-001,1.47599998e+000
,,,-8.90000000e-001,1.48799998e+000
,,,-8.88000000e-001,1.45199998e+000
,,,-8.86000000e-001,1.45199998e+000
,,,-8.84000000e-001,1.41599998e+000
,,,-8.82000000e-001,1.41599998e+000
,,,-8.80000000e-001,1.39199998e+000
,,,-8.78000000e-001,1.39199998e+000
,,,-8.76000000e-001,1.40399998e+000
,,,-8.74000000e-001,1.39199998e+000
,,,-8.72000000e-001,1.40399998e+000
,,,-8.70000000e-001,1.39199998e+000
,,,-8.68000000e-001,1.37999998e+000
,,,-8.66000000e-001,1.40399998e+000
,,,-8.64000000e-001,1.34399998e+000
,,,-8.62000000e-001,1.35599998e+000
,,,-8.60000000e-001,1.36799998e+000
,,,-8.58000000e-001,1.36799998e+000
,,,-8.56000000e-001,1.36799998e+000
,,,-8.54000000e-001,1.40399998e+000
,,,-8.52000000e-001,1.41599998e+000
,,,-8.50000000e-001,1.40399998e+000
,,,-8.48000000e-001,1.41599998e+000
,,,-8.46000000e-001,1.41599998e+000
,,,-8.44000000e-001,1.39199998e+000
,,,-8.42000000e-001,1.39199998e+000
,,,-8.40000000e-001,1.41599998e+000
,,,-8.38000000e-001,1.37999998e+000
,,,-8.36000000e-001,1.41599998e+000
,,,-8.34000000e-001,1.40399998e+000
,,,-8.32000000e-001,1.42799998e+000
,,,-8.30000000e-001,1.41599998e+000
,,,-8.28000000e-001,1.42799998e+000
,,,-8.26000000e-001,1.43999998e+000
,,,-8.24000000e-001,1.45199998e+000
,,,-8.22000000e-001,1.46399998e+000
,,,-8.20000000e-001,1.43999998e+000
,,,-8.18000000e-001,1.42799998e+000
,,,-8.16000000e-001,1.42799998e+000
,,,-8.14000000e-001,1.42799998e+000
,,,-8.12000000e-001,1.41599998e+000
,,,-8.10000000e-001,1.39199998e+000
,,,-8.08000000e-001,1.41599998e+000
,,,-8.06000000e-001,1.39199998e+000
,,,-8.04000000e-001,1.40399998e+000
,,,-8.02000000e-001,1.41599998e+000
,,,-8.00000000e-001,1.39199998e+000
,,,-7.98000000e-001,1.37999998e+000
,,,-7.96000000e-001,1.37999998e+000
,,,-7.94000000e-001,1.37999998e+000
,,,-7.92000000e-001,1.39199998e+000
,,,-7.90000000e-001,1.39199998e+000
,,,-7.88000000e-001,1.37999998e+000
,,,-7.86000000e-001,1.39199998e+000
,,,-7.84000000e-001,1.40399998e+000
,,,-7.82000000e-001,1.39199998e+000
,,,-7.80000000e-001,1.35599998e+000
,,,-7.78000000e-001,1.37999998e+000
,,,-7.76000000e-001,1.40399998e+000
,,,-7.74000000e-001,1.41599998e+000
,,,-7.72000000e-001,1.42799998e+000
,,,-7.70000000e-001,1.45199998e+000
,,,-7.68000000e-001,1.45199998e+000
,,,-7.66000000e-001,1.45199998e+000
,,,-7.64000000e-001,1.43999998e+000
,,,-7.62000000e-001,1.43999998e+000
,,,-7.60000000e-001,1.42799998e+000
,,,-7.58000000e-001,1.42799998e+000
,,,-7.56000000e-001,1.42799998e+000
,,,-7.54000000e-001,1.45199998e+000
,,,-7.52000000e-001,1.47599998e+000
,,,-7.50000000e-001,1.51199999e+000
,,,-7.48000000e-001,1.48799998e+000
,,,-7.46000000e-001,1.49999999e+000
,,,-7.44000000e-001,1.52399999e+000
,,,-7.42000000e-001,1.53599999e+000
,,,-7.40000000e-001,1.53599999e+000
,,,-7.38000000e-001,1.58399999e+000
,,,-7.36000000e-001,1.63199999e+000
,,,-7.34000000e-001,1.57199999e+000
,,,-7.32000000e-001,1.55999999e+000
,,,-7.30000000e-001,1.49999999e+000
,,,-7.28000000e-001,1.47599998e+000
,,,-7.26000000e-001,1.42799998e+000
,,,-7.24000000e-001,1.41599998e+000
,,,-7.22000000e-001,1.40399998e+000
,,,-7.20000000e-001,1.39199998e+000
,,,-7.18000000e-001,1.35599998e+000
,,,-7.16000000e-001,1.37999998e+000
,,,-7.14000000e-001,1.40399998e+000
,,,-7.12000000e-001,1.39199998e+000
,,,-7.10000000e-001,1.39199998e+000
,,,-7.08000000e-001,1.40399998e+000
,,,-7.06000000e-001,1.39199998e+000
,,,-7.04000000e-001,1.36799998e+000
,,,-7.02000000e-001,1.34399998e+000
,,,-7.00000000e-001,1.34399998e+000
,,,-6.98000000e-001,1.35599998e+000
,,,-6.96000000e-001,1.35599998e+000
,,,-6.94000000e-001,1.36799998e+000
,,,-6.92000000e-001,1.39199998e+000
,,,-6.90000000e-001,1.36799998e+000
,,,-6.88000000e-001,1.34399998e+000
,,,-6.86000000e-001,1.34399998e+000
,,,-6.84000000e-001,1.30799998e+000
,,,-6.82000000e-001,1.29599998e+000
,,,-6.80000000e-001,1.29599998e+000
,,,-6.78000000e-001,1.31999998e+000
,,,-6.76000000e-001,1.40399998e+000
,,,-6.74000000e-001,1.51199999e+000
,,,-6.72000000e-001,1.66799999e+000
,,,-6.70000000e-001,1.78800000e+000
,,,-6.68000000e-001,1.83600000e+000
,,,-6.66000000e-001,1.90800000e+000
,,,-6.64000000e-001,1.98000000e+000
,,,-6.62000000e-001,2.07600001e+000
,,,-6.60000000e-001,2.11200001e+000
,,,-6.58000000e-001,2.24400001e+000
,,,-6.56000000e-001,2.26800002e+000
,,,-6.54000000e-001,2.28000002e+000
,,,-6.52000000e-001,2.20800001e+000
,,,-6.50000000e-001,2.05200001e+000
,,,-6.48000000e-001,1.77600000e+000
,,,-6.46000000e-001,1.45199998e+000
,,,-6.44000000e-001,1.13999997e+000
,,,-6.42000000e-001,8.39999959e-001
,,,-6.40000000e-001,6.83999953e-001
,,,-6.38000000e-001,6.23999950e-001
,,,-6.36000000e-001,6.11999950e-001
,,,-6.34000000e-001,6.95999953e-001
,,,-6.32000000e-001,8.15999958e-001
,,,-6.30000000e-001,9.11999962e-001
,,,-6.28000000e-001,1.03199997e+000
,,,-6.26000000e-001,1.11599997e+000
,,,-6.24000000e-001,1.18799997e+000
,,,-6.22000000e-001,1.23599997e+000
,,,-6.20000000e-001,1.27199998e+000
,,,-6.18000000e-001,1.29599998e+000
,,,-6.16000000e-001,1.34399998e+000
,,,-6.14000000e-001,1.37999998e+000
,,,-6.12000000e-001,1.41599998e+000
,,,-6.10000000e-001,1.42799998e+000
,,,-6.08000000e-001,1.43999998e+000
,,,-6.06000000e-001,1.42799998e+000
,,,-6.04000000e-001,1.40399998e+000
,,,-6.02000000e-001,1.42799998e+000
,,,-6.00000000e-001,1.42799998e+000
,,,-5.98000000e-001,1.43999998e+000
,,,-5.96000000e-001,1.41599998e+000
,,,-5.94000000e-001,1.42799998e+000
,,,-5.92000000e-001,1.46399998e+000
,,,-5.90000000e-001,1.46399998e+000
,,,-5.88000000e-001,1.46399998e+000
,,,-5.86000000e-001,1.45199998e+000
,,,-5.84000000e-001,1.45199998e+000
,,,-5.82000000e-001,1.40399998e+000
,,,-5.80000000e-001,1.41599998e+000
,,,-5.78000000e-001,1.39199998e+000
,,,-5.76000000e-001,1.41599998e+000
,,,-5.74000000e-001,1.42799998e+000
,,,-5.72000000e-001,1.45199998e+000
,,,-5.70000000e-001,1.46399998e+000
,,,-5.68000000e-001,1.47599998e+000
,,,-5.66000000e-001,1.45199998e+000
,,,-5.64000000e-001,1.49999999e+000
,,,-5.62000000e-001,1.45199998e+000
,,,-5.60000000e-001,1.45199998e+000
,,,-5.58000000e-001,1.47599998e+000
,,,-5.56000000e-001,1.46399998e+000
,,,-5.54000000e-001,1.49999999e+000
,,,-5.52000000e-001,1.51199999e+000
,,,-5.50000000e-001,1.53599999e+000
,,,-5.48000000e-001,1.52399999e+000
,,,-5.46000000e-001,1.52399999e+000
,,,-5.44000000e-001,1.48799998e+000
,,,-5.42000000e-001,1.49999999e+000
,,,-5.40000000e-001,1.49999999e+000
,,,-5.38000000e-001,1.51199999e+000
,,,-5.36000000e-001,1.52399999e+000
,,,-5.34000000e-001,1.53599999e+000
,,,-5.32000000e-001,1.57199999e+000
,,,-5.30000000e-001,1.55999999e+000
,,,-5.28000000e-001,1.58399999e+000
,,,-5.26000000e-001,1.59599999e+000
,,,-5.24000000e-001,1.54799999e+000
,,,-5.22000000e-001,1.57199999e+000
,,,-5.20000000e-001,1.58399999e+000
,,,-5.18000000e-001,1.53599999e+000
,,,-5.16000000e-001,1.54799999e+000
,,,-5.14000000e-001,1.54799999e+000
,,,-5.12000000e-001,1.57199999e+000
,,,-5.10000000e-001,1.58399999e+000
,,,-5.08000000e-001,1.59599999e+000
,,,-5.06000000e-001,1.61999999e+000
,,,-5.04000000e-001,1.59599999e+000
,,,-5.02000000e-001,1.58399999e+000
,,,-5.00000000e-001,1.57199999e+000
,,,-4.98000000e-001,1.57199999e+000
,,,-4.96000000e-001,1.57199999e+000
,,,-4.94000000e-001,1.63199999e+000
,,,-4.92000000e-001,1.65599999e+000
,,,-4.90000000e-001,1.65599999e+000
,,,-4.88000000e-001,1.65599999e+000
,,,-4.86000000e-001,1.67999999e+000
,,,-4.84000000e-001,1.70399999e+000
,,,-4.82000000e-001,1.69199999e+000
,,,-4.80000000e-001,1.70399999e+000
,,,-4.78000000e-001,1.70399999e+000
,,,-4.76000000e-001,1.71599999e+000
,,,-4.74000000e-001,1.76400000e+000
,,,-4.72000000e-001,1.77600000e+000
,,,-4.70000000e-001,1.78800000e+000
,,,-4.68000000e-001,1.80000000e+000
,,,-4.66000000e-001,1.82400000e+000
,,,-4.64000000e-001,1.82400000e+000
,,,-4.62000000e-001,1.83600000e+000
,,,-4.60000000e-001,1.83600000e+000
,,,-4.58000000e-001,1.84800000e+000
,,,-4.56000000e-001,1.84800000e+000
,,,-4.54000000e-001,1.86000000e+000
,,,-4.52000000e-001,1.89600000e+000
,,,-4.50000000e-001,1.92000000e+000
,,,-4.48000000e-001,1.90800000e+000
,,,-4.46000000e-001,1.92000000e+000
,,,-4.44000000e-001,1.90800000e+000
,,,-4.42000000e-001,1.90800000e+000
,,,-4.40000000e-001,1.89600000e+000
,,,-4.38000000e-001,1.89600000e+000
,,,-4.36000000e-001,1.92000000e+000
,,,-4.34000000e-001,1.94400000e+000
,,,-4.32000000e-001,1.95600000e+000
,,,-4.30000000e-001,1.96800000e+000
,,,-4.28000000e-001,1.98000000e+000
,,,-4.26000000e-001,1.95600000e+000
,,,-4.24000000e-001,1.92000000e+000
,,,-4.22000000e-001,1.90800000e+000
,,,-4.20000000e-001,1.88400000e+000
,,,-4.18000000e-001,1.88400000e+000
,,,-4.16000000e-001,1.87200000e+000
,,,-4.14000000e-001,1.88400000e+000
,,,-4.12000000e-001,1.89600000e+000
,,,-4.10000000e-001,1.90800000e+000
,,,-4.08000000e-001,1.92000000e+000
,,,-4.06000000e-001,1.88400000e+000
,,,-4.04000000e-001,1.87200000e+000
,,,-4.02000000e-001,1.83600000e+000
,,,-4.00000000e-001,1.80000000e+000
,,,-3.98000000e-001,1.75200000e+000
,,,-3.96000000e-001,1.76400000e+000
,,,-3.94000000e-001,1.72799999e+000
,,,-3.92000000e-001,1.67999999e+000
,,,-3.90000000e-001,1.67999999e+000
,,,-3.88000000e-001,1.60799999e+000
,,,-3.86000000e-001,1.60799999e+000
,,,-3.84000000e-001,1.58399999e+000
,,,-3.82000000e-001,1.54799999e+000
,,,-3.80000000e-001,1.51199999e+000
,,,-3.78000000e-001,1.51199999e+000
,,,-3.76000000e-001,1.51199999e+000
,,,-3.74000000e-001,1.51199999e+000
,,,-3.72000000e-001,1.53599999e+000
,,,-3.70000000e-001,1.48799998e+000
,,,-3.68000000e-001,1.46399998e+000
,,,-3.66000000e-001,1.47599998e+000
,,,-3.64000000e-001,1.43999998e+000
,,,-3.62000000e-001,1.40399998e+000
,,,-3.60000000e-001,1.41599998e+000
,,,-3.58000000e-001,1.37999998e+000
,,,-3.56000000e-001,1.39199998e+000
,,,-3.54000000e-001,1.40399998e+000
,,,-3.52000000e-001,1.40399998e+000
,,,-3.50000000e-001,1.41599998e+000
,,,-3.48000000e-001,1.43999998e+000
,,,-3.46000000e-001,1.40399998e+000
,,,-3.44000000e-001,1.40399998e+000
,,,-3.42000000e-001,1.39199998e+000
,,,-3.40000000e-001,1.39199998e+000
,,,-3.38000000e-001,1.36799998e+000
,,,-3.36000000e-001,1.40399998e+000
,,,-3.34000000e-001,1.42799998e+000
,,,-3.32000000e-001,1.41599998e+000
,,,-3.30000000e-001,1.41599998e+000
,,,-3.28000000e-001,1.42799998e+000
,,,-3.26000000e-001,1.43999998e+000
,,,-3.24000000e-001,1.45199998e+000
,,,-3.22000000e-001,1.46399998e+000
,,,-3.20000000e-001,1.46399998e+000
,,,-3.18000000e-001,1.45199998e+000
,,,-3.16000000e-001,1.43999998e+000
,,,-3.14000000e-001,1.45199998e+000
,,,-3.12000000e-001,1.42799998e+000
,,,-3.10000000e-001,1.42799998e+000
,,,-3.08000000e-001,1.40399998e+000
,,,-3.06000000e-001,1.42799998e+000
,,,-3.04000000e-001,1.40399998e+000
,,,-3.02000000e-001,1.41599998e+000
,,,-3.00000000e-001,1.40399998e+000
,,,-2.98000000e-001,1.40399998e+000
,,,-2.96000000e-001,1.41599998e+000
,,,-2.94000000e-001,1.41599998e+000
,,,-2.92000000e-001,1.42799998e+000
,,,-2.90000000e-001,1.45199998e+000
,,,-2.88000000e-001,1.45199998e+000
,,,-2.86000000e-001,1.43999998e+000
,,,-2.84000000e-001,1.45199998e+000
,,,-2.82000000e-001,1.42799998e+000
,,,-2.80000000e-001,1.42799998e+000
,,,-2.78000000e-001,1.41599998e+000
,,,-2.76000000e-001,1.42799998e+000
,,,-2.74000000e-001,1.45199998e+000
,,,-2.72000000e-001,1.43999998e+000
,,,-2.70000000e-001,1.45199998e+000
,,,-2.68000000e-001,1.43999998e+000
,,,-2.66000000e-001,1.42799998e+000
,,,-2.64000000e-001,1.43999998e+000
,,,-2.62000000e-001,1.42799998e+000
,,,-2.60000000e-001,1.41599998e+000
,,,-2.58000000e-001,1.43999998e+000
,,,-2.56000000e-001,1.41599998e+000
,,,-2.54000000e-001,1.43999998e+000
,,,-2.52000000e-001,1.43999998e+000
,,,-2.50000000e-001,1.49999999e+000
,,,-2.48000000e-001,1.47599998e+000
,,,-2.46000000e-001,1.48799998e+000
,,,-2.44000000e-001,1.46399998e+000
,,,-2.42000000e-001,1.45199998e+000
,,,-2.40000000e-001,1.45199998e+000
,,,-2.38000000e-001,1.41599998e+000
,,,-2.36000000e-001,1.41599998e+000
,,,-2.34000000e-001,1.41599998e+000
,,,-2.32000000e-001,1.40399998e+000
,,,-2.30000000e-001,1.39199998e+000
,,,-2.28000000e-001,1.40399998e+000
,,,-2.26000000e-001,1.35599998e+000
,,,-2.24000000e-001,1.36799998e+000
,,,-2.22000000e-001,1.34399998e+000
,,,-2.20000000e-001,1.35599998e+000
,,,-2.18000000e-001,1.34399998e+000
,,,-2.16000000e-001,1.39199998e+000
,,,-2.14000000e-001,1.39199998e+000
,,,-2.12000000e-001,1.41599998e+000
,,,-2.10000000e-001,1.40399998e+000
,,,-2.08000000e-001,1.41599998e+000
,,,-2.06000000e-001,1.40399998e+000
,,,-2.04000000e-001,1.41599998e+000
,,,-2.02000000e-001,1.40399998e+000
,,,-2.00000000e-001,1.39199998e+000
,,,-1.98000000e-001,1.35599998e+000
,,,-1.96000000e-001,1.40399998e+000
,,,-1.94000000e-001,1.40399998e+000
,,,-1.92000000e-001,1.42799998e+000
,,,-1.90000000e-001,1.43999998e+000
,,,-1.88000000e-001,1.42799998e+000
,,,-1.86000000e-001,1.41599998e+000
,,,-1.84000000e-001,1.45199998e+000
,,,-1.82000000e-001,1.41599998e+000
,,,-1.80000000e-001,1.41599998e+000
,,,-1.78000000e-001,1.39199998e+000
,,,-1.76000000e-001,1.41599998e+000
,,,-1.74000000e-001,1.45199998e+000
,,,-1.72000000e-001,1.45199998e+000
,,,-1.70000000e-001,1.45199998e+000
,,,-1.68000000e-001,1.45199998e+000
,,,-1.66000000e-001,1.45199998e+000
,,,-1.64000000e-001,1.43999998e+000
,,,-1.62000000e-001,1.41599998e+000
,,,-1.60000000e-001,1.41599998e+000
,,,-1.58000000e-001,1.41599998e+000
,,,-1.56000000e-001,1.42799998e+000
,,,-1.54000000e-001,1.41599998e+000
,,,-1.52000000e-001,1.45199998e+000
,,,-1.50000000e-001,1.45199998e+000
,,,-1.48000000e-001,1.46399998e+000
,,,-1.46000000e-001,1.45199998e+000
,,,-1.44000000e-001,1.43999998e+000
,,,-1.42000000e-001,1.41599998e+000
,,,-1.40000000e-001,1.37999998e+000
,,,-1.38000000e-001,1.37999998e+000
,,,-1.36000000e-001,1.36799998e+000
,,,-1.34000000e-001,1.37999998e+000
,,,-1.32000000e-001,1.37999998e+000
,,,-1.30000000e-001,1.39199998e+000
,,,-1.28000000e-001,1.39199998e+000
,,,-1.26000000e-001,1.40399998e+000
,,,-1.24000000e-001,1.37999998e+000
,,,-1.22000000e-001,1.41599998e+000
,,,-1.20000000e-001,1.41599998e+000
,,,-1.18000000e-001,1.42799998e+000
,,,-1.16000000e-001,1.41599998e+000
,,,-1.14000000e-001,1.42799998e+000
,,,-1.12000000e-001,1.43999998e+000
,,,-1.10000000e-001,1.46399998e+000
,,,-1.08000000e-001,1.42799998e+000
,,,-1.06000000e-001,1.43999998e+000
,,,-1.04000000e-001,1.46399998e+000
,,,-1.02000000e-001,1.42799998e+000
,,,-1.00000000e-001,1.42799998e+000
,,,-9.80000000e-002,1.46399998e+000
,,,-9.60000000e-002,1.45199998e+000
,,,-9.40000000e-002,1.47599998e+000
,,,-9.20000000e-002,1.48799998e+000
,,,-9.00000000e-002,1.49999999e+000
,,,-8.80000000e-002,1.51199999e+000
,,,-8.60000000e-002,1.51199999e+000
,,,-8.40000000e-002,1.53599999e+000
,,,-8.20000000e-002,1.48799998e+000
,,,-8.00000000e-002,1.52399999e+000
,,,-7.80000000e-002,1.54799999e+000
,,,-7.60000000e-002,1.51199999e+000
,,,-7.40000000e-002,1.53599999e+000
,,,-7.20000000e-002,1.52399999e+000
,,,-7.00000000e-002,1.51199999e+000
,,,-6.80000000e-002,1.53599999e+000
,,,-6.60000000e-002,1.53599999e+000
,,,-6.40000000e-002,1.51199999e+000
,,,-6.20000000e-002,1.47599998e+000
,,,-6.00000000e-002,1.46399998e+000
,,,-5.80000000e-002,1.46399998e+000
,,,-5.60000000e-002,1.48799998e+000
,,,-5.40000000e-002,1.47599998e+000
,,,-5.20000000e-002,1.45199998e+000
,,,-5.00000000e-002,1.45199998e+000
,,,-4.80000000e-002,1.42799998e+000
,,,-4.60000000e-002,1.42799998e+000
,,,-4.40000000e-002,1.40399998e+000
,,,-4.20000000e-002,1.39199998e+000
,,,-4.00000000e-002,1.39199998e+000
,,,-3.80000000e-002,1.39199998e+000
,,,-3.60000000e-002,1.39199998e+000
,,,-3.40000000e-002,1.41599998e+000
,,,-3.20000000e-002,1.41599998e+000
,,,-3.00000000e-002,1.42799998e+000
,,,-2.80000000e-002,1.41599998e+000
,,,-2.60000000e-002,1.41599998e+000
,,,-2.40000000e-002,1.41599998e+000
,,,-2.20000000e-002,1.39199998e+000
,,,-2.00000000e-002,1.36799998e+000
,,,-1.80000000e-002,1.37999998e+000
,,,-1.60000000e-002,1.33199998e+000
,,,-1.40000000e-002,1.34399998e+000
,,,-1.20000000e-002,1.39199998e+000
,,,-1.00000000e-002,1.36799998e+000
,,,-8.00000000e-003,1.42799998e+000
,,,-6.00000000e-003,1.51199999e+000
,,,-4.00000000e-003,1.61999999e+000
,,,-2.00000000e-003,1.76400000e+000
,,,0.00000000e+000,1.78800000e+000
,,,2.00000000e-003,1.88400000e+000
,,,4.00000000e-003,1.92000000e+000
,,,6.00000000e-003,2.00400001e+000
,,,8.00000000e-003,2.12400001e+000
,,,1.00000000e-002,2.22000001e+000
,,,1.20000000e-002,2.29200002e+000
,,,1.40000000e-002,2.31600002e+000
,,,1.60000000e-002,2.26800002e+000
,,,1.80000000e-002,2.17200001e+000
,,,2.00000000e-002,1.87200000e+000
,,,2.20000000e-002,1.58399999e+000
,,,2.40000000e-002,1.30799998e+000
,,,2.60000000e-002,1.01999997e+000
,,,2.80000000e-002,8.51999959e-001
,,,3.00000000e-002,7.55999956e-001
,,,3.20000000e-002,7.67999956e-001
,,,3.40000000e-002,8.27999959e-001
,,,3.60000000e-002,8.75999960e-001
,,,3.80000000e-002,9.83999965e-001
,,,4.00000000e-002,1.04399997e+000
,,,4.20000000e-002,1.16399997e+000
,,,4.40000000e-002,1.21199997e+000
,,,4.60000000e-002,1.29599998e+000
,,,4.80000000e-002,1.31999998e+000
,,,5.00000000e-002,1.36799998e+000
,,,5.20000000e-002,1.41599998e+000
,,,5.40000000e-002,1.37999998e+000
,,,5.60000000e-002,1.36799998e+000
,,,5.80000000e-002,1.42799998e+000
,,,6.00000000e-002,1.40399998e+000
,,,6.20000000e-002,1.42799998e+000
,,,6.40000000e-002,1.45199998e+000
,,,6.60000000e-002,1.43999998e+000
,,,6.80000000e-002,1.43999998e+000
,,,7.00000000e-002,1.45199998e+000
,,,7.20000000e-002,1.46399998e+000
,,,7.40000000e-002,1.43999998e+000
,,,7.60000000e-002,1.45199998e+000
,,,7.80000000e-002,1.49999999e+000
,,,8.00000000e-002,1.43999998e+000
,,,8.20000000e-002,1.45199998e+000
,,,8.40000000e-002,1.47599998e+000
,,,8.60000000e-002,1.46399998e+000
,,,8.80000000e-002,1.51199999e+000
,,,9.00000000e-002,1.49999999e+000
,,,9.20000000e-002,1.51199999e+000
,,,9.40000000e-002,1.51199999e+000
,,,9.60000000e-002,1.48799998e+000
,,,9.80000000e-002,1.48799998e+000
,,,1.00000000e-001,1.45199998e+000
,,,1.02000000e-001,1.47599998e+000
,,,1.04000000e-001,1.51199999e+000
,,,1.06000000e-001,1.53599999e+000
,,,1.08000000e-001,1.51199999e+000
,,,1.10000000e-001,1.51199999e+000
,,,1.12000000e-001,1.51199999e+000
,,,1.14000000e-001,1.54799999e+000
,,,1.16000000e-001,1.53599999e+000
,,,1.18000000e-001,1.54799999e+000
,,,1.20000000e-001,1.52399999e+000
,,,1.22000000e-001,1.53599999e+000
,,,1.24000000e-001,1.54799999e+000
,,,1.26000000e-001,1.55999999e+000
,,,1.28000000e-001,1.58399999e+000
,,,1.30000000e-001,1.59599999e+000
,,,1.32000000e-001,1.58399999e+000
,,,1.34000000e-001,1.58399999e+000
,,,1.36000000e-001,1.58399999e+000
,,,1.38000000e-001,1.60799999e+000
,,,1.40000000e-001,1.58399999e+000
,,,1.42000000e-001,1.59599999e+000
,,,1.44000000e-001,1.60799999e+000
,,,1.46000000e-001,1.59599999e+000
,,,1.48000000e-001,1.59599999e+000
,,,1.50000000e-001,1.57199999e+000
,,,1.52000000e-001,1.55999999e+000
,,,1.54000000e-001,1.58399999e+000
,,,1.56000000e-001,1.54799999e+000
,,,1.58000000e-001,1.53599999e+000
,,,1.60000000e-001,1.58399999e+000
,,,1.62000000e-001,1.60799999e+000
,,,1.64000000e-001,1.58399999e+000
,,,1.66000000e-001,1.61999999e+000
,,,1.68000000e-001,1.64399999e+000
,,,1.70000000e-001,1.64399999e+000
,,,1.72000000e-001,1.65599999e+000
,,,1.74000000e-001,1.65599999e+000
,,,1.76000000e-001,1.65599999e+000
,,,1.78000000e-001,1.67999999e+000
,,,1.80000000e-001,1.67999999e+000
,,,1.82000000e-001,1.65599999e+000
,,,1.84000000e-001,1.69199999e+000
,,,1.86000000e-001,1.73999999e+000
,,,1.88000000e-001,1.75200000e+000
,,,1.90000000e-001,1.75200000e+000
,,,1.92000000e-001,1.76400000e+000
,,,1.94000000e-001,1.80000000e+000
,,,1.96000000e-001,1.78800000e+000
,,,1.98000000e-001,1.80000000e+000
,,,2.00000000e-001,1.80000000e+000
,,,2.02000000e-001,1.82400000e+000
,,,2.04000000e-001,1.83600000e+000
,,,2.06000000e-001,1.88400000e+000
,,,2.08000000e-001,1.92000000e+000
,,,2.10000000e-001,1.92000000e+000
,,,2.12000000e-001,1.92000000e+000
,,,2.14000000e-001,1.89600000e+000
,,,2.16000000e-001,1.84800000e+000
,,,2.18000000e-001,1.89600000e+000
,,,2.20000000e-001,1.88400000e+000
,,,2.22000000e-001,1.88400000e+000
,,,2.24000000e-001,1.88400000e+000
,,,2.26000000e-001,1.92000000e+000
,,,2.28000000e-001,1.90800000e+000
,,,2.30000000e-001,1.96800000e+000
,,,2.32000000e-001,1.94400000e+000
,,,2.34000000e-001,1.95600000e+000
,,,2.36000000e-001,1.94400000e+000
,,,2.38000000e-001,1.93200000e+000
,,,2.40000000e-001,1.93200000e+000
,,,2.42000000e-001,1.94400000e+000
,,,2.44000000e-001,1.95600000e+000
,,,2.46000000e-001,1.96800000e+000
,,,2.48000000e-001,1.96800000e+000
,,,2.50000000e-001,1.96800000e+000
,,,2.52000000e-001,1.96800000e+000
,,,2.54000000e-001,1.94400000e+000
,,,2.56000000e-001,1.92000000e+000
,,,2.58000000e-001,1.88400000e+000
,,,2.60000000e-001,1.88400000e+000
,,,2.62000000e-001,1.87200000e+000
,,,2.64000000e-001,1.88400000e+000
,,,2.66000000e-001,1.87200000e+000
,,,2.68000000e-001,1.84800000e+000
,,,2.70000000e-001,1.82400000e+000
,,,2.72000000e-001,1.77600000e+000
,,,2.74000000e-001,1.76400000e+000
,,,2.76000000e-001,1.72799999e+000
,,,2.78000000e-001,1.71599999e+000
,,,2.80000000e-001,1.66799999e+000
,,,2.82000000e-001,1.64399999e+000
,,,2.84000000e-001,1.59599999e+000
,,,2.86000000e-001,1.61999999e+000
,,,2.88000000e-001,1.58399999e+000
,,,2.90000000e-001,1.58399999e+000
,,,2.92000000e-001,1.58399999e+000
,,,2.94000000e-001,1.55999999e+000
,,,2.96000000e-001,1.51199999e+000
,,,2.98000000e-001,1.48799998e+000
,,,3.00000000e-001,1.49999999e+000
,,,3.02000000e-001,1.49999999e+000
,,,3.04000000e-001,1.48799998e+000
,,,3.06000000e-001,1.52399999e+000
,,,3.08000000e-001,1.49999999e+000
,,,3.10000000e-001,1.49999999e+000
,,,3.12000000e-001,1.49999999e+000
,,,3.14000000e-001,1.49999999e+000
,,,3.16000000e-001,1.46399998e+000
,,,3.18000000e-001,1.45199998e+000
,,,3.20000000e-001,1.42799998e+000
,,,3.22000000e-001,1.42799998e+000
,,,3.24000000e-001,1.47599998e+000
,,,3.26000000e-001,1.45199998e+000
,,,3.28000000e-001,1.48799998e+000
,,,3.30000000e-001,1.48799998e+000
,,,3.32000000e-001,1.46399998e+000
,,,3.34000000e-001,1.45199998e+000
,,,3.36000000e-001,1.43999998e+000
,,,3.38000000e-001,1.46399998e+000
,,,3.40000000e-001,1.42799998e+000
,,,3.42000000e-001,1.43999998e+000
,,,3.44000000e-001,1.45199998e+000
,,,3.46000000e-001,1.47599998e+000
,,,3.48000000e-001,1.47599998e+000
,,,3.50000000e-001,1.48799998e+000
,,,3.52000000e-001,1.49999999e+000
,,,3.54000000e-001,1.47599998e+000
,,,3.56000000e-001,1.49999999e+000
,,,3.58000000e-001,1.46399998e+000
,,,3.60000000e-001,1.45199998e+000
,,,3.62000000e-001,1.45199998e+000
,,,3.64000000e-001,1.47599998e+000
,,,3.66000000e-001,1.46399998e+000
,,,3.68000000e-001,1.49999999e+000
,,,3.70000000e-001,1.52399999e+000
,,,3.72000000e-001,1.54799999e+000
,,,3.74000000e-001,1.54799999e+000
,,,3.76000000e-001,1.54799999e+000
,,,3.78000000e-001,1.49999999e+000
,,,3.80000000e-001,1.46399998e+000
,,,3.82000000e-001,1.46399998e+000
,,,3.84000000e-001,1.42799998e+000
,,,3.86000000e-001,1.43999998e+000
,,,3.88000000e-001,1.45199998e+000
,,,3.90000000e-001,1.45199998e+000
,,,3.92000000e-001,1.42799998e+000
,,,3.94000000e-001,1.45199998e+000
,,,3.96000000e-001,1.45199998e+000
,,,3.98000000e-001,1.45199998e+000
,,,4.00000000e-001,1.45199998e+000
,,,4.02000000e-001,1.42799998e+000
,,,4.04000000e-001,1.46399998e+000
,,,4.06000000e-001,1.45199998e+000
,,,4.08000000e-001,1.45199998e+000
,,,4.10000000e-001,1.48799998e+000
,,,4.12000000e-001,1.46399998e+000
,,,4.14000000e-001,1.46399998e+000
,,,4.16000000e-001,1.42799998e+000
,,,4.18000000e-001,1.43999998e+000
,,,4.20000000e-001,1.43999998e+000
,,,4.22000000e-001,1.43999998e+000
,,,4.24000000e-001,1.46399998e+000
,,,4.26000000e-001,1.45199998e+000
,,,4.28000000e-001,1.45199998e+000
,,,4.30000000e-001,1.46399998e+000
,,,4.32000000e-001,1.47599998e+000
,,,4.34000000e-001,1.48799998e+000
,,,4.36000000e-001,1.45199998e+000
,,,4.38000000e-001,1.45199998e+000
,,,4.40000000e-001,1.46399998e+000
,,,4.42000000e-001,1.45199998e+000
,,,4.44000000e-001,1.45199998e+000
,,,4.46000000e-001,1.46399998e+000
,,,4.48000000e-001,1.47599998e+000
,,,4.50000000e-001,1.46399998e+000
,,,4.52000000e-001,1.46399998e+000
,,,4.54000000e-001,1.45199998e+000
,,,4.56000000e-001,1.46399998e+000
,,,4.58000000e-001,1.43999998e+000
,,,4.60000000e-001,1.41599998e+000
,,,4.62000000e-001,1.42799998e+000
,,,4.64000000e-001,1.42799998e+000
,,,4.66000000e-001,1.41599998e+000
,,,4.68000000e-001,1.45199998e+000
,,,4.70000000e-001,1.45199998e+000
,,,4.72000000e-001,1.46399998e+000
,,,4.74000000e-001,1.43999998e+000
,,,4.76000000e-001,1.43999998e+000
,,,4.78000000e-001,1.41599998e+000
,,,4.80000000e-001,1.40399998e+000
,,,4.82000000e-001,1.39199998e+000
,,,4.84000000e-001,1.40399998e+000
,,,4.86000000e-001,1.41599998e+000
,,,4.88000000e-001,1.42799998e+000
,,,4.90000000e-001,1.42799998e+000
,,,4.92000000e-001,1.43999998e+000
,,,4.94000000e-001,1.43999998e+000
,,,4.96000000e-001,1.43999998e+000
,,,4.98000000e-001,1.41599998e+000
,,,5.00000000e-001,1.41599998e+000
,,,5.02000000e-001,1.41599998e+000
,,,5.04000000e-001,1.41599998e+000
,,,5.06000000e-001,1.43999998e+000
,,,5.08000000e-001,1.40399998e+000
,,,5.10000000e-001,1.43999998e+000
,,,5.12000000e-001,1.45199998e+000
,,,5.14000000e-001,1.43999998e+000
,,,5.16000000e-001,1.43999998e+000
,,,5.18000000e-001,1.45199998e+000
,,,5.20000000e-001,1.45199998e+000
,,,5.22000000e-001,1.45199998e+000
,,,5.24000000e-001,1.45199998e+000
,,,5.26000000e-001,1.45199998e+000
,,,5.28000000e-001,1.48799998e+000
,,,5.30000000e-001,1.46399998e+000
,,,5.32000000e-001,1.47599998e+000
,,,5.34000000e-001,1.48799998e+000
,,,5.36000000e-001,1.45199998e+000
,,,5.38000000e-001,1.41599998e+000
,,,5.40000000e-001,1.42799998e+000
,,,5.42000000e-001,1.41599998e+000
,,,5.44000000e-001,1.40399998e+000
,,,5.46000000e-001,1.42799998e+000
,,,5.48000000e-001,1.43999998e+000
,,,5.50000000e-001,1.42799998e+000
,,,5.52000000e-001,1.43999998e+000
,,,5.54000000e-001,1.41599998e+000
,,,5.56000000e-001,1.41599998e+000
,,,5.58000000e-001,1.41599998e+000
,,,5.60000000e-001,1.43999998e+000
,,,5.62000000e-001,1.41599998e+000
,,,5.64000000e-001,1.42799998e+000
,,,5.66000000e-001,1.42799998e+000
,,,5.68000000e-001,1.45199998e+000
,,,5.70000000e-001,1.48799998e+000
,,,5.72000000e-001,1.48799998e+000
,,,5.74000000e-001,1.49999999e+000
,,,5.76000000e-001,1.47599998e+000
,,,5.78000000e-001,1.48799998e+000
,,,5.80000000e-001,1.46399998e+000
,,,5.82000000e-001,1.43999998e+000
,,,5.84000000e-001,1.48799998e+000
,,,5.86000000e-001,1.49999999e+000
,,,5.88000000e-001,1.48799998e+000
,,,5.90000000e-001,1.52399999e+000
,,,5.92000000e-001,1.53599999e+000
,,,5.94000000e-001,1.55999999e+000
,,,5.96000000e-001,1.55999999e+000
,,,5.98000000e-001,1.57199999e+000
,,,6.00000000e-001,1.58399999e+000
,,,6.02000000e-001,1.55999999e+000
,,,6.04000000e-001,1.57199999e+000
,,,6.06000000e-001,1.57199999e+000
,,,6.08000000e-001,1.53599999e+000
,,,6.10000000e-001,1.54799999e+000
,,,6.12000000e-001,1.51199999e+000
,,,6.14000000e-001,1.49999999e+000
,,,6.16000000e-001,1.51199999e+000
,,,6.18000000e-001,1.49999999e+000
,,,6.20000000e-001,1.49999999e+000
,,,6.22000000e-001,1.51199999e+000
,,,6.24000000e-001,1.51199999e+000
,,,6.26000000e-001,1.47599998e+000
,,,6.28000000e-001,1.49999999e+000
,,,6.30000000e-001,1.48799998e+000
,,,6.32000000e-001,1.45199998e+000
,,,6.34000000e-001,1.45199998e+000
,,,6.36000000e-001,1.42799998e+000
,,,6.38000000e-001,1.43999998e+000
,,,6.40000000e-001,1.42799998e+000
,,,6.42000000e-001,1.41599998e+000
,,,6.44000000e-001,1.42799998e+000
,,,6.46000000e-001,1.43999998e+000
,,,6.48000000e-001,1.45199998e+000
,,,6.50000000e-001,1.45199998e+000
,,,6.52000000e-001,1.45199998e+000
,,,6.54000000e-001,1.46399998e+000
,,,6.56000000e-001,1.42799998e+000
,,,6.58000000e-001,1.41599998e+000
,,,6.60000000e-001,1.37999998e+000
,,,6.62000000e-001,1.39199998e+000
,,,6.64000000e-001,1.40399998e+000
,,,6.66000000e-001,1.46399998e+000
,,,6.68000000e-001,1.49999999e+000
,,,6.70000000e-001,1.60799999e+000
,,,6.72000000e-001,1.70399999e+000
,,,6.74000000e-001,1.81200000e+000
,,,6.76000000e-001,1.89600000e+000
,,,6.78000000e-001,1.96800000e+000
,,,6.80000000e-001,2.04000001e+000
,,,6.82000000e-001,2.11200001e+000
,,,6.84000000e-001,2.20800001e+000
,,,6.86000000e-001,2.26800002e+000
,,,6.88000000e-001,2.36400002e+000
,,,6.90000000e-001,2.37600002e+000
,,,6.92000000e-001,2.28000002e+000
,,,6.94000000e-001,2.14800001e+000
,,,6.96000000e-001,1.88400000e+000
,,,6.98000000e-001,1.55999999e+000
,,,7.00000000e-001,1.28399998e+000
,,,7.02000000e-001,1.00799997e+000
,,,7.04000000e-001,8.27999959e-001
,,,7.06000000e-001,7.67999956e-001
,,,7.08000000e-001,8.03999958e-001
,,,7.10000000e-001,8.75999960e-001
,,,7.12000000e-001,9.47999963e-001
,,,7.14000000e-001,1.04399997e+000
,,,7.16000000e-001,1.12799997e+000
,,,7.18000000e-001,1.22399997e+000
,,,7.20000000e-001,1.28399998e+000
,,,7.22000000e-001,1.30799998e+000
,,,7.24000000e-001,1.39199998e+000
,,,7.26000000e-001,1.40399998e+000
,,,7.28000000e-001,1.41599998e+000
,,,7.30000000e-001,1.43999998e+000
,,,7.32000000e-001,1.45199998e+000
,,,7.34000000e-001,1.45199998e+000
,,,7.36000000e-001,1.43999998e+000
,,,7.38000000e-001,1.45199998e+000
,,,7.40000000e-001,1.47599998e+000
,,,7.42000000e-001,1.47599998e+000
,,,7.44000000e-001,1.53599999e+000
,,,7.46000000e-001,1.53599999e+000
,,,7.48000000e-001,1.52399999e+000
,,,7.50000000e-001,1.53599999e+000
,,,7.52000000e-001,1.53599999e+000
,,,7.54000000e-001,1.52399999e+000
,,,7.56000000e-001,1.49999999e+000
,,,7.58000000e-001,1.47599998e+000
,,,7.60000000e-001,1.46399998e+000
,,,7.62000000e-001,1.49999999e+000
,,,7.64000000e-001,1.49999999e+000
,,,7.66000000e-001,1.51199999e+000
,,,7.68000000e-001,1.52399999e+000
,,,7.70000000e-001,1.51199999e+000
,,,7.72000000e-001,1.53599999e+000
,,,7.74000000e-001,1.53599999e+000
,,,7.76000000e-001,1.49999999e+000
,,,7.78000000e-001,1.51199999e+000
,,,7.80000000e-001,1.53599999e+000
,,,7.82000000e-001,1.52399999e+000
,,,7.84000000e-001,1.53599999e+000
,,,7.86000000e-001,1.58399999e+000
,,,7.88000000e-001,1.57199999e+000
,,,7.90000000e-001,1.55999999e+000
,,,7.92000000e-001,1.58399999e+000
,,,7.94000000e-001,1.54799999e+000
,,,7.96000000e-001,1.57199999e+000
,,,7.98000000e-001,1.58399999e+000
,,,8.00000000e-001,1.57199999e+000
,,,8.02000000e-001,1.59599999e+000
,,,8.04000000e-001,1.59599999e+000
,,,8.06000000e-001,1.61999999e+000
,,,8.08000000e-001,1.64399999e+000
,,,8.10000000e-001,1.66799999e+000
,,,8.12000000e-001,1.60799999e+000
,,,8.14000000e-001,1.60799999e+000
,,,8.16000000e-001,1.55999999e+000
,,,8.18000000e-001,1.57199999e+000
,,,8.20000000e-001,1.54799999e+000
,,,8.22000000e-001,1.57199999e+000
,,,8.24000000e-001,1.58399999e+000
,,,8.26000000e-001,1.58399999e+000
,,,8.28000000e-001,1.60799999e+000
,,,8.30000000e-001,1.61999999e+000
,,,8.32000000e-001,1.64399999e+000
,,,8.34000000e-001,1.64399999e+000
,,,8.36000000e-001,1.64399999e+000
,,,8.38000000e-001,1.61999999e+000
,,,8.40000000e-001,1.64399999e+000
,,,8.42000000e-001,1.63199999e+000
,,,8.44000000e-001,1.65599999e+000
,,,8.46000000e-001,1.65599999e+000
,,,8.48000000e-001,1.69199999e+000
,,,8.50000000e-001,1.70399999e+000
,,,8.52000000e-001,1.72799999e+000
,,,8.54000000e-001,1.72799999e+000
,,,8.56000000e-001,1.70399999e+000
,,,8.58000000e-001,1.71599999e+000
,,,8.60000000e-001,1.71599999e+000
,,,8.62000000e-001,1.75200000e+000
,,,8.64000000e-001,1.75200000e+000
,,,8.66000000e-001,1.80000000e+000
,,,8.68000000e-001,1.81200000e+000
,,,8.70000000e-001,1.82400000e+000
,,,8.72000000e-001,1.83600000e+000
,,,8.74000000e-001,1.83600000e+000
,,,8.76000000e-001,1.87200000e+000
,,,8.78000000e-001,1.83600000e+000
,,,8.80000000e-001,1.83600000e+000
,,,8.82000000e-001,1.81200000e+000
,,,8.84000000e-001,1.87200000e+000
,,,8.86000000e-001,1.90800000e+000
,,,8.88000000e-001,1.92000000e+000
,,,8.90000000e-001,1.94400000e+000
,,,8.92000000e-001,1.92000000e+000
,,,8.94000000e-001,1.94400000e+000
,,,8.96000000e-001,1.96800000e+000
,,,8.98000000e-001,1.96800000e+000
,,,9.00000000e-001,1.96800000e+000
,,,9.02000000e-001,1.99200000e+000
,,,9.04000000e-001,1.98000000e+000
,,,9.06000000e-001,2.00400001e+000
,,,9.08000000e-001,1.95600000e+000
,,,9.10000000e-001,1.99200000e+000
,,,9.12000000e-001,1.95600000e+000
,,,9.14000000e-001,1.92000000e+000
,,,9.16000000e-001,1.92000000e+000
,,,9.18000000e-001,1.92000000e+000
,,,9.20000000e-001,1.92000000e+000
,,,9.22000000e-001,1.93200000e+000
,,,9.24000000e-001,1.94400000e+000
,,,9.26000000e-001,1.95600000e+000
,,,9.28000000e-001,1.93200000e+000
,,,9.30000000e-001,1.95600000e+000
,,,9.32000000e-001,1.94400000e+000
,,,9.34000000e-001,1.89600000e+000
,,,9.36000000e-001,1.88400000e+000
,,,9.38000000e-001,1.87200000e+000
,,,9.40000000e-001,1.84800000e+000
,,,9.42000000e-001,1.83600000e+000
,,,9.44000000e-001,1.81200000e+000
,,,9.46000000e-001,1.82400000e+000
,,,9.48000000e-001,1.78800000e+000
,,,9.50000000e-001,1.75200000e+000
,,,9.52000000e-001,1.73999999e+000
,,,9.54000000e-001,1.72799999e+000
,,,9.56000000e-001,1.69199999e+000
,,,9.58000000e-001,1.64399999e+000
,,,9.60000000e-001,1.64399999e+000
,,,9.62000000e-001,1.61999999e+000
,,,9.64000000e-001,1.60799999e+000
,,,9.66000000e-001,1.59599999e+000
,,,9.68000000e-001,1.60799999e+000
,,,9.70000000e-001,1.63199999e+000
,,,9.72000000e-001,1.60799999e+000
,,,9.74000000e-001,1.55999999e+000
,,,9.76000000e-001,1.54799999e+000
,,,9.78000000e-001,1.48799998e+000
,,,9.80000000e-001,1.49999999e+000
,,,9.82000000e-001,1.47599998e+000
,,,9.84000000e-001,1.47599998e+000
,,,9.86000000e-001,1.46399998e+000
,,,9.88000000e-001,1.46399998e+000
,,,9.90000000e-001,1.48799998e+000
,,,9.92000000e-001,1.46399998e+000
,,,9.94000000e-001,1.47599998e+000
,,,9.96000000e-001,1.47599998e+000
,,,9.98000000e-001,1.45199998e+000
,,,1.00000000e+000,1.42799998e+000
,,,1.00200000e+000,1.42799998e+000
,,,1.00400000e+000,1.42799998e+000
,,,1.00600000e+000,1.42799998e+000
,,,1.00800000e+000,1.48799998e+000
,,,1.01000000e+000,1.47599998e+000
,,,1.01200000e+000,1.48799998e+000
,,,1.01400000e+000,1.47599998e+000
,,,1.01600000e+000,1.48799998e+000
,,,1.01800000e+000,1.47599998e+000
,,,1.02000000e+000,1.46399998e+000
,,,1.02200000e+000,1.46399998e+000
,,,1.02400000e+000,1.46399998e+000
,,,1.02600000e+000,1.47599998e+000
,,,1.02800000e+000,1.49999999e+000
,,,1.03000000e+000,1.51199999e+000
,,,1.03200000e+000,1.48799998e+000
,,,1.03400000e+000,1.49999999e+000
,,,1.03600000e+000,1.49999999e+000
,,,1.03800000e+000,1.48799998e+000
,,,1.04000000e+000,1.48799998e+000
,,,1.04200000e+000,1.46399998e+000
,,,1.04400000e+000,1.51199999e+000
,,,1.04600000e+000,1.46399998e+000
,,,1.04800000e+000,1.49999999e+000
,,,1.05000000e+000,1.49999999e+000
,,,1.05200000e+000,1.48799998e+000
,,,1.05400000e+000,1.46399998e+000
,,,1.05600000e+000,1.46399998e+000
,,,1.05800000e+000,1.45199998e+000
,,,1.06000000e+000,1.45199998e+000
,,,1.06200000e+000,1.43999998e+000
,,,1.06400000e+000,1.42799998e+000
,,,1.06600000e+000,1.45199998e+000
,,,1.06800000e+000,1.45199998e+000
,,,1.07000000e+000,1.46399998e+000
,,,1.07200000e+000,1.46399998e+000
,,,1.07400000e+000,1.46399998e+000
,,,1.07600000e+000,1.46399998e+000
,,,1.07800000e+000,1.45199998e+000
,,,1.08000000e+000,1.47599998e+000
,,,1.08200000e+000,1.46399998e+000
,,,1.08400000e+000,1.48799998e+000
,,,1.08600000e+000,1.49999999e+000
,,,1.08800000e+000,1.47599998e+000
,,,1.09000000e+000,1.51199999e+000
,,,1.09200000e+000,1.47599998e+000
,,,1.09400000e+000,1.47599998e+000
,,,1.09600000e+000,1.46399998e+000
,,,1.09800000e+000,1.43999998e+000
,,,1.10000000e+000,1.46399998e+000
,,,1.10200000e+000,1.46399998e+000
,,,1.10400000e+000,1.48799998e+000
,,,1.10600000e+000,1.49999999e+000
,,,1.10800000e+000,1.48799998e+000
,,,1.11000000e+000,1.48799998e+000
,,,1.11200000e+000,1.45199998e+000
,,,1.11400000e+000,1.42799998e+000
,,,1.11600000e+000,1.41599998e+000
,,,1.11800000e+000,1.40399998e+000
,,,1.12000000e+000,1.40399998e+000
,,,1.12200000e+000,1.41599998e+000
,,,1.12400000e+000,1.43999998e+000
,,,1.12600000e+000,1.42799998e+000
,,,1.12800000e+000,1.42799998e+000
,,,1.13000000e+000,1.45199998e+000
,,,1.13200000e+000,1.42799998e+000
,,,1.13400000e+000,1.45199998e+000
,,,1.13600000e+000,1.42799998e+000
,,,1.13800000e+000,1.43999998e+000
,,,1.14000000e+000,1.45199998e+000
,,,1.14200000e+000,1.42799998e+000
,,,1.14400000e+000,1.45199998e+000
,,,1.14600000e+000,1.45199998e+000
,,,1.14800000e+000,1.46399998e+000
,,,1.15000000e+000,1.45199998e+000
,,,1.15200000e+000,1.43999998e+000
,,,1.15400000e+000,1.41599998e+000
,,,1.15600000e+000,1.40399998e+000
,,,1.15800000e+000,1.41599998e+000
,,,1.16000000e+000,1.39199998e+000
,,,1.16200000e+000,1.41599998e+000
,,,1.16400000e+000,1.39199998e+000
,,,1.16600000e+000,1.42799998e+000
,,,1.16800000e+000,1.42799998e+000
,,,1.17000000e+000,1.43999998e+000
,,,1.17200000e+000,1.45199998e+000
,,,1.17400000e+000,1.46399998e+000
,,,1.17600000e+000,1.46399998e+000
,,,1.17800000e+000,1.42799998e+000
,,,1.18000000e+000,1.41599998e+000
,,,1.18200000e+000,1.45199998e+000
,,,1.18400000e+000,1.42799998e+000
,,,1.18600000e+000,1.42799998e+000
,,,1.18800000e+000,1.42799998e+000
,,,1.19000000e+000,1.46399998e+000
,,,1.19200000e+000,1.41599998e+000
,,,1.19400000e+000,1.42799998e+000
,,,1.19600000e+000,1.43999998e+000
,,,1.19800000e+000,1.41599998e+000
,,,1.20000000e+000,1.42799998e+000
,,,1.20200000e+000,1.41599998e+000
,,,1.20400000e+000,1.43999998e+000
,,,1.20600000e+000,1.43999998e+000
,,,1.20800000e+000,1.45199998e+000
,,,1.21000000e+000,1.42799998e+000
,,,1.21200000e+000,1.42799998e+000
,,,1.21400000e+000,1.42799998e+000
,,,1.21600000e+000,1.42799998e+000
,,,1.21800000e+000,1.41599998e+000
,,,1.22000000e+000,1.41599998e+000
,,,1.22200000e+000,1.42799998e+000
,,,1.22400000e+000,1.43999998e+000
,,,1.22600000e+000,1.46399998e+000
,,,1.22800000e+000,1.45199998e+000
,,,1.23000000e+000,1.47599998e+000
,,,1.23200000e+000,1.49999999e+000
,,,1.23400000e+000,1.48799998e+000
,,,1.23600000e+000,1.48799998e+000
,,,1.23800000e+000,1.46399998e+000
,,,1.24000000e+000,1.46399998e+000
,,,1.24200000e+000,1.47599998e+000
,,,1.24400000e+000,1.49999999e+000
,,,1.24600000e+000,1.51199999e+000
,,,1.24800000e+000,1.53599999e+000
,,,1.25000000e+000,1.52399999e+000
,,,1.25200000e+000,1.49999999e+000
,,,1.25400000e+000,1.48799998e+000
,,,1.25600000e+000,1.47599998e+000
,,,1.25800000e+000,1.43999998e+000
,,,1.26000000e+000,1.48799998e+000
,,,1.26200000e+000,1.49999999e+000
,,,1.26400000e+000,1.48799998e+000
,,,1.26600000e+000,1.49999999e+000
,,,1.26800000e+000,1.51199999e+000
,,,1.27000000e+000,1.53599999e+000
,,,1.27200000e+000,1.52399999e+000
,,,1.27400000e+000,1.52399999e+000
,,,1.27600000e+000,1.48799998e+000
,,,1.27800000e+000,1.52399999e+000
,,,1.28000000e+000,1.45199998e+000
,,,1.28200000e+000,1.46399998e+000
,,,1.28400000e+000,1.49999999e+000
,,,1.28600000e+000,1.48799998e+000
,,,1.28800000e+000,1.45199998e+000
,,,1.29000000e+000,1.49999999e+000
,,,1.29200000e+000,1.45199998e+000
,,,1.29400000e+000,1.42799998e+000
,,,1.29600000e+000,1.42799998e+000
,,,1.29800000e+000,1.41599998e+000
,,,1.30000000e+000,1.41599998e+000
,,,1.30200000e+000,1.42799998e+000
,,,1.30400000e+000,1.43999998e+000
,,,1.30600000e+000,1.48799998e+000
,,,1.30800000e+000,1.47599998e+000
,,,1.31000000e+000,1.46399998e+000
,,,1.31200000e+000,1.46399998e+000
,,,1.31400000e+000,1.46399998e+000
,,,1.31600000e+000,1.42799998e+000
,,,1.31800000e+000,1.41599998e+000
,,,1.32000000e+000,1.39199998e+000
,,,1.32200000e+000,1.35599998e+000
,,,1.32400000e+000,1.34399998e+000
,,,1.32600000e+000,1.33199998e+000
,,,1.32800000e+000,1.36799998e+000
,,,1.33000000e+000,1.42799998e+000
,,,1.33200000e+000,1.48799998e+000
,,,1.33400000e+000,1.59599999e+000
,,,1.33600000e+000,1.72799999e+000
,,,1.33800000e+000,1.80000000e+000
,,,1.34000000e+000,1.84800000e+000
,,,1.34200000e+000,1.92000000e+000
,,,1.34400000e+000,1.99200000e+000
,,,1.34600000e+000,2.04000001e+000
,,,1.34800000e+000,2.16000001e+000
,,,1.35000000e+000,2.19600001e+000
,,,1.35200000e+000,2.25600002e+000
,,,1.35400000e+000,2.24400001e+000
,,,1.35600000e+000,2.16000001e+000
,,,1.35800000e+000,1.95600000e+000
,,,1.36000000e+000,1.69199999e+000
,,,1.36200000e+000,1.41599998e+000
,,,1.36400000e+000,1.13999997e+000
,,,1.36600000e+000,9.23999962e-001
,,,1.36800000e+000,8.15999958e-001
,,,1.37000000e+000,8.15999958e-001
,,,1.37200000e+000,8.15999958e-001
,,,1.37400000e+000,8.99999961e-001
,,,1.37600000e+000,9.83999965e-001
,,,1.37800000e+000,1.09199997e+000
,,,1.38000000e+000,1.15199997e+000
,,,1.38200000e+000,1.25999998e+000
,,,1.38400000e+000,1.33199998e+000
,,,1.38600000e+000,1.35599998e+000
,,,1.38800000e+000,1.37999998e+000
,,,1.39000000e+000,1.41599998e+000
,,,1.39200000e+000,1.42799998e+000
,,,1.39400000e+000,1.39199998e+000
,,,1.39600000e+000,1.41599998e+000
,,,1.39800000e+000,1.42799998e+000
,,,1.40000000e+000,1.45199998e+000
,,,1.40200000e+000,1.46399998e+000
,,,1.40400000e+000,1.51199999e+000
,,,1.40600000e+000,1.49999999e+000
,,,1.40800000e+000,1.49999999e+000
,,,1.41000000e+000,1.51199999e+000
,,,1.41200000e+000,1.52399999e+000
,,,1.41400000e+000,1.49999999e+000
,,,1.41600000e+000,1.47599998e+000
,,,1.41800000e+000,1.46399998e+000
,,,1.42000000e+000,1.46399998e+000
,,,1.42200000e+000,1.48799998e+000
,,,1.42400000e+000,1.46399998e+000
,,,1.42600000e+000,1.53599999e+000
,,,1.42800000e+000,1.51199999e+000
,,,1.43000000e+000,1.51199999e+000
,,,1.43200000e+000,1.52399999e+000
,,,1.43400000e+000,1.52399999e+000
,,,1.43600000e+000,1.49999999e+000
,,,1.43800000e+000,1.48799998e+000
,,,1.44000000e+000,1.51199999e+000
,,,1.44200000e+000,1.51199999e+000
,,,1.44400000e+000,1.54799999e+000
,,,1.44600000e+000,1.53599999e+000
,,,1.44800000e+000,1.53599999e+000
,,,1.45000000e+000,1.57199999e+000
,,,1.45200000e+000,1.57199999e+000
,,,1.45400000e+000,1.57199999e+000
,,,1.45600000e+000,1.54799999e+000
,,,1.45800000e+000,1.54799999e+000
,,,1.46000000e+000,1.58399999e+000
,,,1.46200000e+000,1.55999999e+000
,,,1.46400000e+000,1.57199999e+000
,,,1.46600000e+000,1.58399999e+000
,,,1.46800000e+000,1.59599999e+000
,,,1.47000000e+000,1.61999999e+000
,,,1.47200000e+000,1.61999999e+000
,,,1.47400000e+000,1.61999999e+000
,,,1.47600000e+000,1.60799999e+000
,,,1.47800000e+000,1.60799999e+000
,,,1.48000000e+000,1.61999999e+000
,,,1.48200000e+000,1.63199999e+000
,,,1.48400000e+000,1.59599999e+000
,,,1.48600000e+000,1.60799999e+000
,,,1.48800000e+000,1.61999999e+000
,,,1.49000000e+000,1.61999999e+000
,,,1.49200000e+000,1.61999999e+000
,,,1.49400000e+000,1.60799999e+000
,,,1.49600000e+000,1.61999999e+000
,,,1.49800000e+000,1.60799999e+000
,,,1.50000000e+000,1.63199999e+000
,,,1.50200000e+000,1.61999999e+000
,,,1.50400000e+000,1.63199999e+000
,,,1.50600000e+000,1.65599999e+000
,,,1.50800000e+000,1.66799999e+000
,,,1.51000000e+000,1.67999999e+000
,,,1.51200000e+000,1.67999999e+000
,,,1.51400000e+000,1.69199999e+000
,,,1.51600000e+000,1.69199999e+000
,,,1.51800000e+000,1.69199999e+000
,,,1.52000000e+000,1.69199999e+000
,,,1.52200000e+000,1.72799999e+000
,,,1.52400000e+000,1.73999999e+000
,,,1.52600000e+000,1.76400000e+000
,,,1.52800000e+000,1.78800000e+000
,,,1.53000000e+000,1.77600000e+000
,,,1.53200000e+000,1.77600000e+000
,,,1.53400000e+000,1.80000000e+000
,,,1.53600000e+000,1.80000000e+000
,,,1.53800000e+000,1.83600000e+000
,,,1.54000000e+000,1.87200000e+000
,,,1.54200000e+000,1.84800000e+000
,,,1.54400000e+000,1.90800000e+000
,,,1.54600000e+000,1.88400000e+000
,,,1.54800000e+000,1.92000000e+000
,,,1.55000000e+000,1.88400000e+000
,,,1.55200000e+000,1.89600000e+000
,,,1.55400000e+000,1.92000000e+000
,,,1.55600000e+000,1.92000000e+000
,,,1.55800000e+000,1.90800000e+000
,,,1.56000000e+000,1.92000000e+000
,,,1.56200000e+000,1.89600000e+000
,,,1.56400000e+000,1.92000000e+000
,,,1.56600000e+000,1.96800000e+000
,,,1.56800000e+000,1.95600000e+000
,,,1.57000000e+000,1.98000000e+000
,,,1.57200000e+000,2.00400001e+000
,,,1.57400000e+000,1.99200000e+000
,,,1.57600000e+000,1.99200000e+000
,,,1.57800000e+000,1.98000000e+000
,,,1.58000000e+000,1.93200000e+000
,,,1.58200000e+000,1.95600000e+000
,,,1.58400000e+000,1.95600000e+000
,,,1.58600000e+000,1.96800000e+000
,,,1.58800000e+000,1.95600000e+000
,,,1.59000000e+000,1.95600000e+000
,,,1.59200000e+000,1.92000000e+000
,,,1.59400000e+000,1.88400000e+000
,,,1.59600000e+000,1.92000000e+000
,,,1.59800000e+000,1.89600000e+000
,,,1.60000000e+000,1.88400000e+000
,,,1.60200000e+000,1.86000000e+000
,,,1.60400000e+000,1.87200000e+000
,,,1.60600000e+000,1.83600000e+000
,,,1.60800000e+000,1.82400000e+000
,,,1.61000000e+000,1.81200000e+000
,,,1.61200000e+000,1.78800000e+000
,,,1.61400000e+000,1.77600000e+000
,,,1.61600000e+000,1.71599999e+000
,,,1.61800000e+000,1.71599999e+000
,,,1.62000000e+000,1.67999999e+000
,,,1.62200000e+000,1.64399999e+000
,,,1.62400000e+000,1.66799999e+000
,,,1.62600000e+000,1.64399999e+000
,,,1.62800000e+000,1.64399999e+000
,,,1.63000000e+000,1.60799999e+000
,,,1.63200000e+000,1.57199999e+000
,,,1.63400000e+000,1.53599999e+000
,,,1.63600000e+000,1.49999999e+000
,,,1.63800000e+000,1.47599998e+000
